Date,High,Low,Closing, C_Trades ,C_Shares,Turnover,Dividends
1/3/2011,301,298.5,299.5,52,807600,242224830,0
1/4/2011,300,297,299.1,58,282200,84154620,0
1/5/2011,299.7,297,299.2,44,25400,7576950,0
1/6/2011,300,297.6,299,70,2540600,750198680,0
1/7/2011,300,298,299.2,86,230900,69216820,0
1/10/2011,299,294.5,295.7,127,690300,204211030,0
1/11/2011,298.5,294.6,295,80,637500,188120260,0
1/12/2011,297,295,295.1,104,629800,185829940,0
1/13/2011,298,294.5,295.1,68,59000,17410210,0
1/14/2011,298,295,295,37,33300,9833270,0
1/17/2011,296,292,293.1,74,191000,56179050,0
1/18/2011,293.5,291.5,292.9,90,225100,65922140,0
1/20/2011,299,292,298.3,134,1027500,301328320,0
1/21/2011,299,295,295.7,62,47900,14242210,0
1/24/2011,297,293.5,294.6,75,62400,18410860,0
1/25/2011,295.7,291.1,292.5,60,51500,15127220,0
1/26/2011,294,290,292,115,180400,52614080,0
1/27/2011,299,293,295,85,91200,26952580,0
1/28/2011,297,292.5,293.1,85,151200,44379320,0
1/31/2011,295,293,293.6,108,142600,41883720,0
2/1/2011,295,290,294.2,108,179100,52392540,0
2/2/2011,297,294,296.7,175,279200,82587730,0
2/3/2011,297,293,293.2,75,112700,33203740,0
2/7/2011,294,293,293.7,124,650400,190615300,0
2/8/2011,294,292,293,82,331100,97052400,0
2/9/2011,294,291,292.1,56,76700,22346800,0
2/10/2011,294,291.6,293.4,81,132600,38840890,0
2/11/2011,296.7,293,295,115,217500,63943450,0
2/14/2011,295,291,292.2,98,203200,59436260,0
2/15/2011,294,291,293.3,66,508300,147973340,0
2/18/2011,298,291.2,296.4,123,263900,77841170,0
2/21/2011,297,295,295,64,85400,25196240,0
2/22/2011,295,292,292.2,107,605300,176944780,0
2/23/2011,293,290.5,291,73,1098200,319596650,1
2/24/2011,295,290,290.5,60,678100,197999110,0
2/25/2011,294.5,289,290,33,457200,132593300,0
2/28/2011,292,288,288.8,25,7200,2082240,0
3/1/2011,291.5,287.2,289.5,44,97700,28308510,0
3/3/2011,290,286,289.4,103,524200,151896800,0
3/4/2011,290,286,289.7,39,56100,16233010,0
3/7/2011,289.8,285,285.6,41,20100,5750300,0
3/8/2011,286.5,280.1,282.6,41,1023500,291658440,0
3/9/2011,285,275,275.4,81,2365500,655962230,0
3/10/2011,279,273.6,277.8,56,314100,86130930,0
3/11/2011,279,273.2,274.2,55,44200,12144410,0
3/14/2011,276,269,270,74,55500,15065450,0
3/15/2011,273.5,263.5,264.6,93,42500,11319390,0
3/16/2011,270,262,262.7,57,29600,7896920,0
3/17/2011,270.5,265,268.5,121,280100,74415570,0
3/18/2011,270,264,264.5,64,156800,41556020,0
3/21/2011,267,260.1,260.2,81,126600,33068110,0
3/22/2011,262.6,260,260.5,56,59500,15515340,0
3/23/2011,267,261,265.3,37,37900,10044700,0
3/24/2011,270,264,267.8,37,21300,5680680,0
3/25/2011,275,268,273.7,66,83100,22657950,0
3/28/2011,279.9,271,276.6,76,148500,40901040,0
3/29/2011,280,272.2,274.9,29,54400,14956720,0
3/30/2011,285,271.5,279.9,52,50600,14071090,0
3/31/2011,287,276,285.6,107,213200,60455670,0
4/1/2011,297.9,285,295.6,142,356900,104628620,0
4/4/2011,298.6,296,296.5,168,460700,136911050,0
4/5/2011,299,295,296.9,104,476000,142057340,0
4/6/2011,298,295,296.3,95,157000,46696970,0
4/7/2011,298,296,297.7,122,437400,129906000,0
4/8/2011,298,295.5,297.4,83,87500,26004190,0
4/11/2011,299,295,296.6,83,166700,49529740,0
4/12/2011,299,295,296.9,44,112300,33445330,0
4/18/2011,299,295,296.7,39,105300,31102020,0
4/19/2011,295.1,292,294.6,46,60600,17843630,0
4/20/2011,295,293,295,73,107900,31822950,0
4/21/2011,296.9,293.5,295,78,202400,59710360,0
4/25/2011,296,280,290.5,69,362200,106509520,0
4/26/2011,290.5,285.1,288.4,32,56600,16411920,0
4/27/2011,289.5,285,286.8,24,20200,5800050,0
4/28/2011,287,283.1,285.8,43,50200,14271570,0
4/29/2011,286,282.2,282.9,38,51200,14527370,0
5/3/2011,285,280,281,43,90800,25523050,0
5/4/2011,286.5,277.1,280,75,88800,24796420,0
5/5/2011,287,280,283.6,20,100600,28196790,0
5/6/2011,285,280,282.7,36,124100,34803060,0
5/9/2011,291,280.5,289.9,96,308300,89192040,0
5/10/2011,294,285,288.4,40,15200,4378600,0
5/11/2011,292,289,289.7,156,292300,84853470,0
5/12/2011,296,290,295.5,106,224500,66078990,0
5/13/2011,297,293,295.5,140,260100,77064580,0
5/16/2011,296.9,295,296.1,94,387200,114602470,0
5/19/2011,299,296.8,299,167,811700,242189580,0
5/20/2011,304.9,296,297.8,340,658900,197556390,1
5/23/2011,300,297,298.4,122,1033234,308258802,0
5/24/2011,300,299,299.7,148,409000,122588820,0
5/25/2011,301,298.5,300.1,137,1346700,403086740,0
5/26/2011,302,297,301.7,133,990100,297327770,0
5/27/2011,303,298,299.3,27,16400,4939890,0
5/30/2011,302,299,300,126,217500,65251860,0
5/31/2011,301,297,300,73,241100,72328490,0
6/1/2011,303,300,302,102,289800,87510840,0
6/2/2011,302,298,300,82,439000,131749590,0
6/3/2011,301,299,300,89,315100,94529990,0
6/6/2011,302,299,300,54,135000,40501650,0
6/7/2011,302,300,300.6,97,1325300,397852040,0
6/8/2011,303,299.5,299.9,69,1700600,510172620,0
6/9/2011,302.3,300,301.4,96,248500,74787950,0
6/10/2011,302,300,300,67,650300,196661310,0
6/13/2011,302.9,297,299.2,71,89500,26952330,0
6/14/2011,300,297,298.5,54,1140000,341491590,0
6/16/2011,299.5,297,297.2,53,669400,199454430,0
6/17/2011,299.5,297,297.5,47,157300,46876920,0
6/20/2011,298,296,296.7,45,423000,125640410,0
6/21/2011,297,293,293.3,35,66200,19429600,0
6/22/2011,295,288.5,290.1,66,130900,38005560,0
6/23/2011,290,282,284.5,49,182800,52036910,0
6/24/2011,288,278.1,282.3,135,522700,147197510,0
6/30/2011,211.7,199,201,107,93500,18819700,0
7/1/2011,207.9,201,204.8,100,264700,53806280,0
7/4/2011,209,206,206.8,84,319900,66224900,0
7/5/2011,215,205,214.7,137,6840700,1417097510,0
7/6/2011,219,214,215,97,115100,24835790,0
7/7/2011,215,210,212,134,687500,145809310,0
7/8/2011,212,209,210,47,94100,19865520,0
7/11/2011,210,204,205,56,143600,29462160,0
7/12/2011,210,202,202.6,125,505700,102644060,0
7/13/2011,203,201.5,201.6,75,92200,18607570,0
7/15/2011,215,202,213.3,124,356900,74443630,0
7/18/2011,213,206,206.1,34,62500,13240610,0
7/19/2011,206,202,202,97,605300,122821950,0
7/20/2011,208,201.2,202.6,56,928900,187677860,0
7/21/2011,203,199.5,199.9,69,790434,158085520,0
7/22/2011,200,192,194.8,183,230300,44927860,0
7/25/2011,199,185,189.1,164,435200,81387610,0
7/26/2011,190,185,185.7,157,449100,83643070,0
7/27/2011,188.7,183,186.5,83,126100,23371160,0
7/28/2011,190,186,189,90,111200,20991390,0
7/29/2011,195.5,188.5,191.1,173,536400,103386040,0
8/1/2011,197.5,193,195.4,116,1667633,325266075,0
8/2/2011,197.9,195,196.3,70,76000,14903640,0
8/3/2011,197.9,195,197.5,47,103700,20470410,0
8/4/2011,198,196.5,197.7,34,29800,5874380,0
8/5/2011,197,195,196.8,69,277700,54540990,0
8/8/2011,196,189,194.5,94,302500,58265570,0
8/9/2011,194.5,191,194.1,50,135800,26276110,0
8/10/2011,196.5,194,196,32,58700,11459140,0
8/11/2011,197.5,192,197,66,349100,68149240,0
8/12/2011,203,196.5,201.4,136,328100,65546760,0
8/15/2011,204,200,203,71,380400,76732100,0
8/16/2011,215,204,214,296,1878400,398493750,0
8/17/2011,218,208.5,209.2,95,218200,46276020,0
8/18/2011,211.9,208,210.3,65,152600,32045650,0
8/19/2011,210,208,209,52,93800,19631980,0
8/22/2011,210,205,205.2,35,58900,12182680,0
8/23/2011,205.2,203.6,203.7,27,31200,6376000,0
8/24/2011,207,204,204.6,23,211700,44395370,0
8/25/2011,212.5,205,210.6,187,807000,168573250,0
8/26/2011,212,208,210,123,84300,17737080,0
8/29/2011,213.5,209.8,212.9,105,518000,109788380,0
8/30/2011,212,210,211.7,51,139200,29459600,0
9/1/2011,216,213,215,120,436800,93838810,0
9/2/2011,217,215,216.1,74,164200,35361870,0
9/5/2011,219.9,216,218.3,79,302900,66034020,0
9/6/2011,219.9,215,216,51,102000,22063300,0
9/7/2011,219.5,216,218.5,54,17325800,3725421770,0
9/8/2011,220,216.5,216.9,36,2049600,440722250,0
9/9/2011,218.7,215,215.1,33,27200,5881080,0
9/12/2011,216.1,213,214.6,24,720400,154888880,0
9/13/2011,219.1,214.9,218.2,118,389000,84637750,0
9/14/2011,219.8,217.5,218.8,214,850200,186160350,0
9/15/2011,218.8,216.1,216.8,52,256842,55888035,0
9/16/2011,217.8,216.5,217,59,233400,50703220,0
9/20/2011,217,214.1,214.8,97,300700,64806110,0
9/21/2011,217.5,214,214.1,49,173200,37214170,0
9/22/2011,214.5,212,213,48,105200,22509020,0
9/23/2011,212,208,209.1,45,80300,16844420,0
9/26/2011,213,208,210,65,182900,38381020,0
9/27/2011,210,208.1,209,30,122900,25696370,0
9/28/2011,209.5,207.2,208.1,45,83700,17467330,0
9/29/2011,208.2,205,205,69,654200,134790760,0
9/30/2011,208,205,205.9,42,178200,36707550,0
9/30/2011,208,205,205.9,42,178200,36707550,0
10/3/2011,206.1,203,203.9,41,624200,128186390,0
10/4/2011,205,201.5,202.8,67,166600,33912670,0
10/5/2011,202.8,199,200,91,282000,56401930,0
10/6/2011,203,200,200,43,249200,49842510,0
10/7/2011,202.5,199.8,200,63,1064700,213424200,0
10/10/2011,202,199.8,200,94,1628000,325603360,0
10/12/2011,200,199,200,116,2173600,434712880,0
10/13/2011,202,199.9,201,34,425300,85060700,0
10/14/2011,201,200,200.1,37,455400,91084420,0
10/17/2011,212,199.5,199.7,114,662100,132448010,0
10/18/2011,202,198.2,198.5,104,332800,66391340,0
10/19/2011,200,198,198.1,73,145800,29011860,0
10/20/2011,199.9,196.1,196.3,38,137100,27115170,0
10/21/2011,198.7,193.2,195,64,88500,17283300,0
10/24/2011,198.7,190.1,191.9,91,119100,22949530,0
10/25/2011,195,189.1,190,118,521600,99116520,0
10/27/2011,192,190,190.5,145,468900,89347140,0
10/28/2011,191,190.5,190.5,47,65000,12393540,0
10/31/2011,190.5,189,189.1,139,739800,140542810,0
11/1/2011,192.5,188,188.1,71,267200,50482570,0
11/2/2011,199.9,188.1,195,68,108400,20899680,0
11/3/2011,197,192.1,195,57,462600,90953780,1
11/4/2011,197,194,195.4,26,32200,6288000,0
11/8/2011,195.4,193,194.5,50,762000,148487150,0
11/9/2011,195,193,193.1,41,514800,99417660,0
11/11/2011,194.9,191,192.6,65,501400,96600790,0
11/14/2011,193,187.5,188.2,115,189500,36133750,0
11/15/2011,189,181,181.2,176,152000,27873640,0
11/16/2011,185,175,177.7,121,91500,16554640,0
11/17/2011,181,172.2,174.9,302,1174806,205643570,0
11/18/2011,176,174,174.4,220,1335000,233423000,0
11/21/2011,177,174.5,175,94,2928300,512449580,0
11/22/2011,180,174.1,175,171,3273633,572776178.5,0
11/23/2011,177,174.6,175,61,326000,57065820,0
11/24/2011,177,174.4,175,257,3371000,589889260,0
11/25/2011,177.5,173.3,174.1,71,205400,35890510,0
11/28/2011,176,174,175,86,220400,38573820,0
11/29/2011,177,174,174.3,112,267700,46829580,0
11/30/2011,174.8,169,170,226,2831500,481684620,0
12/1/2011,170.1,169.5,169.9,85,1162866,197683980,0
12/2/2011,174.5,168,168.2,125,214100,36196670,0
12/5/2011,168.2,161.8,162.1,428,4533500,734989670,0
12/6/2011,165,162,164,80,199700,32597730,0
12/7/2011,174.5,164,172.1,132,163200,27788120,0
12/8/2011,178,172.9,173.6,186,177500,30950630,0
12/9/2011,173,169.6,172.6,42,184100,31401420,0
12/12/2011,178,172,177,239,697700,123225010,0
12/13/2011,183,177,182.1,251,552400,99413920,0
12/14/2011,182.9,179,179.8,149,610000,109779500,0
12/15/2011,179,176.1,176.7,60,526800,94160570,0
12/16/2011,177,173,173.4,110,961700,169952990,0
12/19/2011,174.5,169.1,170.1,199,1124800,188902450,0
12/20/2011,170,166,167.3,103,171400,28828110,0
12/21/2011,173,168,170,41,515500,87620680,0
12/22/2011,174,169,172,23,64600,11045840,0
12/23/2011,172.8,170,170.2,128,3271000,556136330,0
12/27/2011,173.4,170,171.5,15,3800,649120,0
12/28/2011,173,171,172.5,26,23600,4052320,0
12/29/2011,175,172,172,47,87800,15133020,0
12/30/2011,171.1,170,170.2,53,80600,13753520,0
1/2/2012,171.8,170,171,41,34800,5949960,0
1/3/2012,172,169,169.2,102,369900,62828300,0
1/4/2012,172,168.4,168.5,126,855900,144555560,0
1/5/2012,170,168.4,169.1,125,452400,76484620,0
1/6/2012,169.1,167.5,167.8,105,260100,43700560,0
1/9/2012,168.5,166.6,167,56,568000,94856750,0
1/10/2012,167,165,165,68,548800,91127430,0
1/11/2012,168,165,166.2,57,131000,21815670,0
1/12/2012,167,163.3,163.9,146,378600,62218710,0
1/13/2012,168,163.7,164.6,80,105400,17324180,0
1/17/2012,168,162,162.5,97,138700,22767120,0
1/18/2012,163,158.2,159.2,195,120700,19287470,0
1/19/2012,162,158.5,160.1,74,238700,38170600,0
1/20/2012,165,160,163.3,63,84000,13589100,0
1/23/2012,165,163,164,123,285200,46764210,0
1/24/2012,165,159,160,152,1157200,184523640,0
1/25/2012,162,159.2,160,104,441600,70681920,0
1/26/2012,164,159.7,163.4,157,8811300,1466801100,0
1/27/2012,169,163.4,167.9,240,709700,118603730,0
1/30/2012,171,168.5,170,138,375900,63871950,0
1/31/2012,172,168,169.3,71,268700,45640570,0
2/1/2012,170,169,170,125,1249958,212450850,0
2/2/2012,170,167,167.5,50,584400,99179320,0
2/3/2012,168.9,166,167.2,52,90000,14994510,0
2/6/2012,170,167,167.5,56,417200,70011050,0
2/8/2012,170,164,164.9,147,817800,135442610,0
2/9/2012,166,163,163.6,96,1206600,198882730,0
2/13/2012,163.6,159,160.3,195,1663900,266682360,0
2/14/2012,162,159.2,159.6,179,1986800,317606120,0
2/15/2012,164,159,159.5,67,171300,27340790,1
2/16/2012,165,159.5,163,42,74200,12068480,0
2/17/2012,164.9,161,163,49,340600,54917370,0
2/21/2012,166.5,163,166.5,75,357900,59054070,0
2/22/2012,174,166.5,173.9,163,1331400,230940360,0
2/23/2012,178,173,177.2,159,420700,73824720,0
2/24/2012,177,175,176.1,59,21302,3752753.2,0
2/27/2012,176.5,172,175,94,83695,14633397.1,0
2/28/2012,176,174.9,175,57,202295,35401748.4,0
2/29/2012,176,171,175.5,53,1722383,301435596.2,0
3/1/2012,178.5,171.1,177.9,104,196595,34828053,0
3/2/2012,178.5,176.1,178.3,97,249238,44414426.1,0
3/5/2012,181.7,177.5,181.1,127,866714,156775325.5,0
3/6/2012,187.5,181.7,186.7,205,337354,62704728.3,0
3/8/2012,187,183,186.1,150,459071,85247835.9,0
3/9/2012,189.7,186,189.3,147,439712,82679947.5,0
3/12/2012,193.4,189,193.3,365,893646,172474073.4,0
3/13/2012,195,193,194,355,1380485,267812530.3,0
3/14/2012,195.7,194,195,219,603754,117606416.5,0
3/15/2012,196,194.5,195.3,185,397286,77517679,0
3/16/2012,196,190,195.1,524,76819442,14905164273,0
3/19/2012,200.4,195,200,253,2088246,417297174,0
3/20/2012,201,199.9,200,135,971371,194288217,0
3/21/2012,199,194.4,195,80,109785,21415185.2,0
3/22/2012,199,190.1,191.1,145,266937,51134020.3,0
3/23/2012,195.1,191.1,194.8,183,2083070,399855799.3,0
3/26/2012,200,192.6,199.8,166,734020,144396106,0
3/27/2012,201.1,199.8,201,200,604523,121288543.4,0
3/28/2012,206,201,205.3,192,1215876,248897863.3,0
3/29/2012,210,205.1,208.4,168,531071,110659214.8,0
3/30/2012,210,205,206,135,543117,113522768.7,0
4/2/2012,208.8,206,208.4,95,400376,83443556.4,0
4/3/2012,209.5,208.4,209,99,652282,136677983.9,0
4/4/2012,209.5,208,209,68,440008,91658840.4,0
4/5/2012,210.8,208,209.3,100,258073,54085066.9,0
4/9/2012,210,209,209.1,39,40788,8546760.7,0
4/10/2012,209.9,208.2,209,38,26035,5433864.9,0
4/11/2012,210,209,209.4,20,20551,4300278.9,0
4/16/2012,209.9,208.2,209.7,122,517311,108361772.5,0
4/17/2012,209.6,209.2,209.4,170,1034096,216595469.7,0
4/18/2012,209.9,208,208.5,61,133131,27779825.9,0
4/19/2012,209,205,206.5,69,296666,61639666,0
4/20/2012,207,206,206,57,211204,43564751,0
4/23/2012,207.5,205.5,206,26,96418,19860899.6,0
4/24/2012,206.5,205,206,101,289949,59744445.4,0
4/25/2012,206.4,205,205.3,154,246340,50749904.2,0
4/26/2012,204.5,203,203.6,61,141542,28863049.7,0
4/27/2012,205,203,203.6,111,345487,70422952.9,0
4/30/2012,204,201.5,203.1,139,589870,119668536.3,0
5/2/2012,204,200.5,201.5,61,419069,85285312.4,0
5/3/2012,202.5,200.1,201.6,60,106576,21481731.1,0
5/4/2012,202.4,200.3,202,43,205214,41445762.3,0
5/8/2012,203,201,202,94,345347,69934760.5,0
5/9/2012,202,199.8,199.9,45,276142,55746096.6,0
5/10/2012,199.9,197.1,197.9,115,399466,79236024.1,0
5/11/2012,198,196,196.9,67,237172,46700409.7,0
5/14/2012,197.4,196,197,94,237165,46721117.7,0
5/15/2012,200,197,198.1,68,754716,149885775.6,0
5/16/2012,199.8,198,198.6,31,48735,9675027.5,0
5/17/2012,201,198,200,35,33575,6715113.7,0
5/18/2012,201,200,200.8,39,43387,8690743.9,0
5/21/2012,202.5,200.3,202.1,64,235051,47395177.9,0
5/22/2012,202.5,202,202.1,36,47130,9521830.5,0
5/23/2012,202,194.2,196,60,1908175,380794286,0
5/24/2012,199.9,196.6,196.9,27,606065,119995922.8,0
5/25/2012,198,195.1,195.2,27,13162,2588976.5,1
5/28/2012,196.9,191,191.1,87,804053,154695724.6,0
5/29/2012,190.1,187,187.8,106,794652,149590141.1,0
5/30/2012,189,185,185,116,2110723,391335283.4,0
5/31/2012,187,184.1,184.6,109,277380,51265480.9,0
6/1/2012,185,183.5,184,26,9449,1744891.4,0
6/5/2012,185,172,173.6,151,547223,95406515.3,0
6/6/2012,178,175,177.3,56,64002,11303950.7,0
6/7/2012,180.1,177.9,179.1,119,769287,137379275.6,0
6/8/2012,179.4,178,178.7,83,340856,60982756.8,0
6/11/2012,182,180,180,67,146832,26437376.3,0
6/12/2012,181,180.2,180.7,56,166740,30127277.8,0
6/13/2012,185,180.6,182.1,52,158163,28720529.7,0
6/14/2012,187,182.1,186,67,122263,22645846.6,0
6/15/2012,189,185.5,188.3,50,66864,12542312.6,0
6/18/2012,190.5,186,189.8,60,30891,5833486.7,0
6/19/2012,191.9,189,190.7,51,74000,14088610.3,0
6/20/2012,194.5,190,194,57,55235,10671995.5,0
6/21/2012,197,194,196,80,287845,56086578.8,0
6/22/2012,197,192,193.9,65,749708,146084511.1,0
6/25/2012,193.9,190,190.3,31,12135,2315069.5,0
6/26/2012,194.9,189.2,190,221,1015718,192980952.5,0
6/27/2012,191,189,189,50,3735524,684496532.2,0
6/28/2012,190,185,185,38,873554,161612912.5,0
6/29/2012,186.1,182.1,182.8,34,20631,3784383.2,0
7/2/2012,185.5,182,184.5,16,13130,2422014.5,0
7/4/2012,189.9,184.1,185.4,59,622250,115135904.5,0
7/5/2012,185,183.9,184.2,29,15706,2890969,0
7/6/2012,185,183,184.9,14,5749,1052925.5,0
7/9/2012,184.9,182.1,184.4,26,15966,2925453,0
7/10/2012,185,183,183.4,65,137869,25357065.4,0
7/11/2012,183,182.5,182.5,28,14229,2599491.5,0
7/12/2012,183,180.2,180.5,78,150773,27291635,0
7/13/2012,182,179.5,179.7,91,137550,24759761,0
7/16/2012,180.1,178.5,179.9,47,42413,7616860.2,0
7/17/2012,180,177.9,178.2,59,77830,13880858.5,0
7/18/2012,178,176,177,67,96129,17013920.8,0
7/19/2012,181.5,178,180,43,312974,56204766,0
7/20/2012,182,179,180,28,45989,8280688.1,0
7/23/2012,180,179,179.1,44,621771,111909320,0
7/24/2012,180,178,178.4,72,90772,16204316.5,0
7/25/2012,179,176.9,177,47,170666,30279560.3,0
7/26/2012,178.4,177,177.9,30,26173,4646804.9,0
7/27/2012,184.5,180,183.9,119,310780,56509164.2,0
7/30/2012,185.5,183.9,185.2,114,263726,48800019.2,0
7/31/2012,186,183.9,183.9,47,1631058,303344252,0
8/2/2012,186,184.9,185,62,2020367,373770475.4,0
8/3/2012,185,183.5,184.1,22,339761,62815618.7,0
8/6/2012,185.9,184.5,184.9,64,1160789,214728352.8,0
8/7/2012,185,183.5,184.9,32,530597,98142545.2,0
8/8/2012,184.9,182.9,184,39,47547,8766161.4,0
8/9/2012,187,184.5,185,45,1485917,274896639.2,0
8/10/2012,185,184,185,29,13905,2564929,0
8/13/2012,186,185,185.5,41,87537,16205185.6,0
8/14/2012,195,185,194.8,158,1092045,208129111.4,0
8/15/2012,200,194.4,199,285,3556502,709857332.3,0
8/16/2012,198.8,192.2,195,86,237812,46400009.4,0
8/17/2012,196.5,193.1,195.1,48,57566,11260912,0
8/20/2012,198.7,196.5,197.9,64,87634,17326260.7,0
8/21/2012,198.6,194,198,57,263743,52214673,0
8/22/2012,199.5,198.6,199,76,628560,125255736.3,0
8/23/2012,199.1,198,199,56,1102615,218840046,0
8/24/2012,197,195,195.2,32,378931,73895053.2,0
8/27/2012,198.3,196.5,197.4,65,156369,30915338.2,0
8/28/2012,199,198,198.4,48,30579,6072072.7,0
8/29/2012,198.8,197,198,32,23370,4627240.4,0
8/30/2012,198,197.5,197.8,106,275903,54604599.3,0
9/3/2012,198.5,197.5,198.2,81,252917,50084784.2,0
9/4/2012,199.5,197.5,199,35,36074,7165678.2,0
9/5/2012,199,197,197.1,47,132241,26095181.7,0
9/6/2012,199,197,198.8,48,305676,60771703.9,0
9/7/2012,201,198.8,200,179,628870,125664976,0
9/10/2012,205,200,204.7,126,344349,70175331.8,0
9/11/2012,204.5,200,203,68,60123,12189167.7,0
9/12/2012,210,200.1,208.4,179,725812,150520920,0
9/13/2012,213,209.8,212.4,215,658595,139033299.1,0
9/14/2012,218.3,213.6,218,256,1740823,377931206.8,0
9/17/2012,220,218,219.4,206,212224,46503402.1,0
9/18/2012,219.5,215,217,149,458519,100558856.7,0
9/19/2012,218.2,215,218,200,1045119,227526234.7,0
9/20/2012,219.5,216,219.4,161,324171,70833399.4,0
9/21/2012,220.9,219.6,220.1,186,1879575,413387976.4,0
9/24/2012,221,218.5,220,114,254396,55972898.4,0
9/25/2012,221.9,218.5,221.4,121,306436,67606744.8,0
9/26/2012,223.9,221,223,90,812357,180562326,0
9/27/2012,225.5,223,225,190,949051,213139381.1,0
9/28/2012,229.9,225,229.1,151,1194370,272613591.1,0
10/1/2012,230,227,227.5,73,348829,80124029.9,0
10/2/2012,228.5,224,225.1,24,39183,8819261.5,0
10/3/2012,227,220,221.7,155,1448698,326619781.4,0
10/4/2012,224.9,218,219.9,88,92428,20408876.3,0
10/5/2012,220,213.5,216.4,138,163661,35377020.9,0
10/8/2012,220,210,210.5,186,273945,58095806.5,0
10/9/2012,215.4,212,213.8,112,252977,54317856.5,0
10/10/2012,215,207.7,208.8,164,660992,140524659.5,0
10/11/2012,210,203,203.5,291,663402,136052692.1,0
10/12/2012,208,203.6,205.4,145,490604,100265166.5,0
10/15/2012,210,205,205,87,3829452,785130627.3,0
10/16/2012,208,203,204.4,56,58448,11980275.2,0
10/17/2012,204.5,202.1,202.9,60,77623,15755947.5,0
10/18/2012,205,202.1,203.9,25,903992,185315430.6,0
10/19/2012,208,205,206,79,55173,11374681,0
10/22/2012,208,205.8,207,96,189087,39062488.1,0
10/23/2012,209.7,207,208,103,650285,135249056.6,0
10/24/2012,209,207.1,207.6,67,228941,47576390.1,0
10/25/2012,209,207,208,33,22072,4572651.6,0
10/26/2012,209.5,207,208.1,38,93301,19407576.7,0
10/30/2012,208,206.3,206.8,51,128498,26592545.8,0
10/31/2012,208,205,205.2,49,1151071,237095639.5,0
11/1/2012,208,205.9,206.5,60,71541,14750071.4,0
11/2/2012,212,206.2,209.7,81,2753290,578126800.9,1
11/5/2012,212,209,211.6,79,218340,46209942.1,0
11/6/2012,215,210.1,212.1,51,47098,9983236.4,0
11/7/2012,214.9,212.1,213.3,39,40676,8641272.9,0
11/8/2012,214.5,213,213.9,42,22551,4822650.1,0
11/9/2012,215.1,214,214.9,82,747784,160730348.1,0
11/12/2012,218,214.5,216.9,82,123403,26603173.2,0
11/14/2012,218.2,216,218,157,330942,72081146.2,0
11/15/2012,219,214,215.8,129,1408156,307602592.4,0
11/16/2012,217,216.5,216.8,84,942754,204573132,0
11/19/2012,217,214.1,216,93,99524,21536677,0
11/20/2012,216.5,213,214,74,76704,16438448.7,0
11/21/2012,214,209,210.1,59,1596545,343148007.4,0
11/22/2012,213.5,208.5,212,81,32380,6885730,0
11/23/2012,212.9,210,211.5,29,76765,16230650.2,0
11/26/2012,212.8,211.5,211.8,50,125378,26586476.5,0
11/28/2012,212,209,209.1,64,1857334,393275081,0
11/29/2012,212,210,211.7,172,1654511,350189647.9,0
11/30/2012,212,205.1,208.5,144,354237,74490849.9,0
12/3/2012,210,206,207.1,50,119411,24743011.3,0
12/4/2012,210,207,209.1,64,769282,161446493.4,0
12/5/2012,210,208.5,209.3,49,794023,166235195.8,0
12/6/2012,211,209,210.7,35,245819,51667031.3,0
12/7/2012,212,209,210,40,30385,6387468.7,0
12/10/2012,212,210,211,38,431008,91209599.8,0
12/11/2012,212,210.6,211.8,44,172251,36474953.3,0
12/12/2012,215,211.8,214.4,71,209319,44584521.7,0
12/13/2012,218,215,217.4,107,138492,30058377.5,0
12/14/2012,218,217.1,218,50,493929,107671205.9,0
12/17/2012,218.4,215.5,216.8,30,12546,2717337.6,0
12/18/2012,219,216,217.8,37,712525,155313082.7,0
12/19/2012,217.9,215.3,217,34,35539,7699597,0
12/20/2012,218,217,218,64,2624587,572156064.3,0
12/21/2012,218,217,218,36,1495895,326098293.9,0
12/24/2012,217.5,217,217,13,11737,2546981,0
12/26/2012,218,217,218,61,693226,151120979.8,0
12/28/2012,220,218,219.4,63,2865772,627346219.9,0
12/31/2012,220,219,219.9,100,146907,32315775.8,0
1/2/2013,220,219,219.9,26,44925,9876022.5,0
1/3/2013,220,219,220,88,431697,94959844.4,0
1/4/2013,220.1,219.6,219.9,91,2409355,530595058.2,0
1/7/2013,223.5,220,223,97,983145,218330687.6,0
1/8/2013,224.9,223,224.3,210,691005,155062041,0
1/9/2013,224.5,223,224,94,84603,18967402.4,0
1/10/2013,224,223,223.6,76,714661,160304747.6,0
1/11/2013,223.2,222.1,223,110,355499,79274953.6,0
1/15/2013,224.5,223,224.3,152,813537,182643952.7,0
1/16/2013,225.1,224,225,100,737507,165902339.5,0
1/17/2013,226,225,225,84,565871,127388183.9,0
1/18/2013,226,224.1,225,41,78168,17587934.5,0
1/21/2013,225.5,224,224.5,57,164770,37062934,0
1/22/2013,224.9,224,224.5,52,98213,22031761.1,0
1/23/2013,224.7,224.5,224.6,27,77771,17461201.9,0
1/24/2013,225,224.5,224.5,32,141306,31725368.5,0
1/28/2013,225.6,224.6,225,143,2435235,547907655.8,0
1/29/2013,226,224.6,225.1,122,1733156,391187827.4,0
1/30/2013,229.7,225.9,228.2,136,357571,80970063.9,0
1/31/2013,230,229,229.9,256,5714774,1311541303,0
2/1/2013,230.9,228,229.9,139,2570323,590982498.5,0
2/5/2013,229.5,228,229.1,49,332235,76087491.5,0
2/6/2013,229.5,229,229.4,60,128234,29392974,0
2/7/2013,229.9,229,229.6,51,1214067,277864600.1,0
2/8/2013,230.9,229.2,230,127,783261,180169549.3,0
2/11/2013,230,228,229.9,54,102769,23634318.9,0
2/12/2013,231,229,231,89,340377,78307614.5,0
2/13/2013,232,230.1,231,111,659160,152292315,0
2/14/2013,232,230.1,230.2,37,105777,24394176.6,0
2/15/2013,230.9,230,230.1,49,260827,60029563.9,0
2/18/2013,230.9,230,230.1,50,1554496,357832022,0
2/19/2013,231.5,230.3,231,163,855660,197592216.8,0
2/20/2013,233,231,232.8,122,296385,68767787.1,0
2/21/2013,235.3,233,235,217,1394813,327592522,0
2/22/2013,237,234.5,236.9,90,416513,98622811.8,0
2/26/2013,236.2,233.1,236,95,1002563,236595966,0
2/27/2013,236.1,233,235.8,57,93859,22116119.9,1
2/28/2013,236.4,233.2,234,84,256570,60457814,0
3/1/2013,236.5,233,235.2,27,11917,2813773,0
3/4/2013,236,233.3,233.9,38,29254,6892136.7,0
3/5/2013,234.8,234,234.5,51,1066445,250077424.5,0
3/6/2013,234.6,233.5,234.3,62,104564,24486956.6,0
3/7/2013,234.7,234,234.1,62,379266,88760544.8,0
3/8/2013,234.5,233,233,71,1342375,314115154.4,0
3/11/2013,235,233,234.7,136,576361,135215284.8,0
3/12/2013,238,233.5,237.5,192,1467393,347595568.5,0
3/13/2013,239,237,237.1,53,439520,104186295.6,0
3/14/2013,239,237,238.6,79,710511,169045559.2,0
3/15/2013,240,238.5,240,125,1122460,269292218.2,0
3/18/2013,241,239,240,70,265672,63768662,0
3/19/2013,245,240,243.8,119,1830710,444189646,0
3/20/2013,249.7,243.8,249.5,207,849118,211915788.3,0
3/21/2013,249.7,247,249,73,73126,18223489.2,0
3/22/2013,249,245,247.5,122,1148022,284642735.6,0
3/25/2013,247,243,246,52,51478,12654371.9,0
3/27/2013,247,245,246.8,130,1359180,335366159.6,0
3/28/2013,248,247,247,47,377233,93444910.8,0
4/1/2013,247,245.5,246.5,18,28466,7028469,0
4/2/2013,247,243.5,247,94,1299575,320847893.8,0
4/3/2013,248,247,247.4,47,1227396,304369070.9,0
4/4/2013,248.5,247,248.2,43,106544,26420952.8,0
4/5/2013,248,247,247,26,170128,42171115,0
4/8/2013,247.5,246.9,247,15,49475,12220448,0
4/9/2013,247.5,246.5,247.3,68,321225,79316941.5,0
4/10/2013,248,247,247.4,46,41741,10330359.1,0
4/11/2013,247.5,246,247.3,68,25606,6334911,0
4/12/2013,248.5,247.5,247.8,39,79320,19654795.8,0
4/16/2013,248.5,247,248.5,54,177646,44136406,0
4/17/2013,249,248.5,248.6,93,406998,101287424.2,0
4/18/2013,249,247.5,249,40,175045,43582325.7,0
4/19/2013,249.5,248,248.8,51,62567,15571440.3,0
4/22/2013,249,248,248.8,76,53855,13399229.1,0
4/23/2013,249,248,248.9,44,126683,31530638.2,0
4/24/2013,249.5,248.5,249,82,458981,114282297.9,0
4/26/2013,249.5,249,249.5,75,457485,114055614,0
4/29/2013,250,249,249.9,70,192895,48153923.9,0
4/30/2013,250,249.5,250,79,254036,63496557.9,0
5/2/2013,250.1,249.6,250,50,397171,99290794.5,0
5/3/2013,253,250.5,252.8,137,958642,241661049.1,0
5/6/2013,262,253,260.2,128,164012,42457852.1,0
5/7/2013,264.8,261,264.5,126,219426,57807829.3,0
5/8/2013,270,264.9,269.9,194,386677,104056317.2,0
5/9/2013,270.1,267,267.5,50,85613,23024552.2,0
5/10/2013,271,267.5,268.3,78,127396,34335750.6,0
5/13/2013,270.5,268,269.9,108,460366,124140789.7,0
5/14/2013,274,270.5,273,176,371374,101191564.4,0
5/15/2013,275,273,274.2,137,1616799,443394394.9,0
5/16/2013,278.5,275,278,148,247795,68757873,0
5/17/2013,285,278,284.9,205,308401,86936420.3,0
5/20/2013,298.5,285,297.1,351,541234,159102091.3,0
5/21/2013,299.8,295.1,297,327,1488357,443295080.5,0
5/22/2013,297,291,295.1,104,56624,16701699.3,0
5/23/2013,295,293,293.8,51,32901,9662862,0
5/27/2013,294.9,288.1,288.9,162,319066,92890548,0
5/28/2013,289.8,287,289,106,213012,61268893.7,1
5/29/2013,290,288,288.6,94,203092,58657704.9,0
5/30/2013,288.6,286,286.9,128,181963,52375111.7,0
5/31/2013,287,284.5,285,88,207042,59173714.1,0
6/3/2013,285,282,283.5,92,157155,44652144.5,0
6/4/2013,283,280,281.7,144,309629,87377619.4,0
6/5/2013,281.5,278.5,279.4,98,173156,48424937.2,0
6/6/2013,280,268,273.2,127,406503,110568007.5,0
6/7/2013,273,265,265,147,97464,25920252.2,0
6/10/2013,274,266.6,272.8,134,278209,75262568.6,0
6/11/2013,276,274.5,275,188,523001,143832086.5,0
6/12/2013,275,271,273.5,57,48100,13167980.8,0
6/13/2013,273.5,266.6,267,57,60401,16211454.4,0
6/14/2013,268,265,265.6,124,824114,219290411.8,0
6/17/2013,265.5,263.9,264.2,77,106494,28217658.1,0
6/18/2013,264.9,263.5,264,58,37751,9962475.8,0
6/19/2013,268,265,265,86,153384,40647086,0
6/20/2013,270,264.5,269.5,157,10478149,2777608337,0
6/21/2013,269,265,265.1,67,119550,31937472.6,0
6/24/2013,265,264,264,30,28035,7423288,0
6/25/2013,264,258,259,90,391156,101576059.9,0
6/26/2013,259,248,249.3,234,3818381,944798347.9,0
6/27/2013,257,250,251.3,72,2633095,650516352.1,0
6/28/2013,252.1,251.3,251.5,73,97461,24508492.9,0
7/1/2013,264.9,251.1,260.4,104,91839,23388939.7,0
7/2/2013,268,262.5,266.8,167,111527,29638973.5,0
7/3/2013,267,255.2,259.6,132,75474,19744003.7,0
7/4/2013,259.8,253.5,253.9,86,81214,20660231.9,0
7/5/2013,253.5,248.2,249,219,214979,53685159.8,0
7/8/2013,249,240,241,319,413913,100442700.5,0
7/9/2013,243.5,241,241.8,160,143941,34804899.9,0
7/10/2013,249,242.5,245.6,178,221588,54229757.3,0
7/11/2013,257,249.9,253.3,245,159468,40467640.7,0
7/12/2013,253.5,248.5,249.9,147,177408,44350601.1,0
7/15/2013,250,248.1,248.6,70,148166,36888917,0
7/16/2013,249,243.1,246.2,110,1382023,341208283.4,0
7/17/2013,249,245,246,91,100069,24615303.4,0
7/18/2013,250,245,249.7,92,1039205,259622303.4,0
7/19/2013,261,250,260,292,1245828,323627049.9,0
7/23/2013,272,260,270.3,378,341381,91783553.9,0
7/24/2013,273.2,266.4,269.7,245,244820,66135909.6,0
7/25/2013,269.7,266,267,50,223378,59847920,0
7/26/2013,269,266,268,61,35816,9574340,0
7/29/2013,269.5,264,267.5,140,415671,111001551.5,0
7/30/2013,269,260,264.1,178,1758643,468489896.8,0
7/31/2013,263,255.2,260.4,146,2286917,595808242,0
8/1/2013,267,262,265.7,149,488222,129591655.5,0
8/2/2013,267,265,266,56,240772,64026029,0
8/5/2013,268,265,267.9,39,47744,12765335,0
8/6/2013,270,265.1,269.2,84,610938,163878643.9,0
8/7/2013,270,266,267.5,54,116624,31348633.5,0
8/8/2013,267,264.3,264.3,29,46267,12274953,0
8/12/2013,265,260,262.3,74,255627,66955470.9,0
8/13/2013,263,260,260,72,383354,99697052,0
8/14/2013,262,260,260,40,942909,245158725,0
8/15/2013,260.3,256,257.8,125,561059,144894504.8,0
8/16/2013,258,250,256.8,152,801608,204276670.3,0
8/19/2013,260,256.8,259.3,46,278982,72079617.5,0
8/21/2013,256,249,249.4,181,381267,95336996.8,0
8/22/2013,250,247.5,248,108,819152,203131077.5,0
8/23/2013,248,240,240.3,474,1971820,474105289,0
8/26/2013,241,240,240.1,227,461113,110750460.7,0
8/27/2013,240.1,228.1,231.6,480,774993,179192832.6,0
8/28/2013,230,204,208,692,739820,155673176,0
8/29/2013,215,208,214.6,354,522867,110987434.6,0
8/30/2013,217,213,214.8,210,431725,92770340.3,0
9/2/2013,215,211.9,212.9,141,580417,123136973.6,0
9/3/2013,215,212.5,214.8,113,304905,65280519.7,0
9/4/2013,214,212.8,213,80,494967,105438001.1,0
9/5/2013,213.5,210,210.6,171,1253642,263758348.5,0
9/6/2013,212,209,209.4,86,598350,125636828.9,0
9/9/2013,209,206,206.4,187,710493,148115524.6,0
9/10/2013,210,206,209,89,1554546,324838245.7,0
9/11/2013,212,208.9,209,217,4048299,846137988.7,0
9/12/2013,212,209,209.9,126,554232,116114414.5,0
9/13/2013,212,209,209.6,80,3075477,644796637.9,0
9/16/2013,212,209.5,210.9,135,2365178,497181504.6,0
9/17/2013,212,210.2,211.8,55,3274997,689430697.3,0
9/18/2013,212,210.5,212,56,1483771,315071111.5,0
9/20/2013,218,212.5,217.9,144,1374405,295585588.3,0
9/23/2013,220,218,220,183,361037,79369301.3,0
9/24/2013,221.1,219,220.9,127,1082686,238680272.5,0
9/25/2013,224,221,222.9,191,1195632,266567389.1,0
9/26/2013,224,221.5,222.7,75,186396,41554953.2,0
9/27/2013,222.9,218.5,218.9,110,265431,58501968.2,0
9/30/2013,219,217,218,116,506439,110568490.6,0
10/1/2013,219.9,216.1,219,171,1031981,225423828.9,0
10/2/2013,224,219.5,223,343,3532725,786027115.2,0
10/3/2013,216,209,213.8,283,1115253,235589588.3,0
10/4/2013,220,212,216.5,95,86957,18691849.2,0
10/7/2013,220,218,219,111,1075061,235433842,0
10/8/2013,220.6,219,219,65,880670,193279498.8,0
10/9/2013,219,215,215.1,24,174385,38264405.1,0
10/10/2013,218,215,215,44,359257,77874813.3,0
10/11/2013,217,215,215,83,648173,140565842.7,0
10/14/2013,215.5,215,215,41,28135,6049045,0
10/15/2013,218.9,215,217.5,133,5121210,1116193588,0
10/17/2013,218.5,216,217.3,125,1044216,227151699,0
10/21/2013,218,213.2,214,160,1153834,247992421.2,0
10/22/2013,214,210.5,212.9,201,1117774,238115464.8,0
10/23/2013,214,212.1,213,230,693960,147849340.7,0
10/24/2013,223,213,220,217,138744,30299114.8,0
10/25/2013,223,220.4,222.3,87,101199,22482540.6,0
10/28/2013,222,217,218.1,69,23115,5090091.6,0
10/29/2013,220.9,215,219.9,115,85515,18767169.8,0
10/30/2013,221,216.5,219.9,15,5390,1184894.5,0
10/31/2013,224.4,220,223.6,178,805694,179103043.3,0
11/1/2013,225,222.1,224.9,83,811958,182625947.9,0
11/4/2013,225.4,224,225,102,258420,58143866.5,0
11/5/2013,224,220,223.9,78,18326,4097888.9,0
11/6/2013,223.9,221,223.8,39,210213,46884937.9,0
11/7/2013,223.9,222,222.5,101,160411,35705542.4,1
11/8/2013,222,218,219.4,41,12236,2698130.3,0
11/11/2013,220,217.1,218.4,74,88756,19358838.3,0
11/12/2013,217,208,209.8,449,1420933,297988802.6,0
11/13/2013,210,206.5,208.6,249,1177934,242977267,0
11/14/2013,210,207.1,208.4,107,41904,8734813,0
11/15/2013,212.8,210,210.4,173,45445,9577909.3,0
11/18/2013,218,211,214.5,143,425174,90901617,0
11/19/2013,218,217,217.8,146,288013,62777745.4,0
11/20/2013,218.3,217.5,218,156,104970,22878011.5,0
11/21/2013,219.9,218.1,219,86,27910,6101892.9,0
11/22/2013,219,217.9,218.9,59,35468,7760281.5,0
11/25/2013,219,217.1,217.8,48,16831,3675703.3,0
11/26/2013,217,216,216,31,111838,24267567.9,0
11/27/2013,215,214,214,12,226532,48928412,0
11/28/2013,213.5,210,212,59,304981,64776314,0
11/29/2013,213,210.3,210.9,28,20837,4409011.7,0
12/2/2013,212,209.3,209.9,164,971430,204120183.6,0
12/3/2013,210.2,210,210.1,80,276923,58174966.5,0
12/4/2013,210,209.9,210,81,513949,107928871,0
12/5/2013,210.5,209.9,210,82,509424,106979528.9,0
12/6/2013,212,210,210.5,58,320128,67298943.9,0
12/9/2013,215,211,215,34,399206,84782588.3,0
12/10/2013,216,214.8,215,74,348682,75239151.6,0
12/11/2013,216,214.5,215,51,98225,21119352.9,0
12/12/2013,215.5,214.7,214.9,37,12163,2614026.1,0
12/13/2013,215.5,214.1,214.3,48,589972,126779450.4,0
12/17/2013,216,214.9,216,120,3588346,771522378.5,0
12/18/2013,220,215.2,217.4,169,304443,66095274.4,0
12/19/2013,222,218.5,220.5,103,285046,62757727.2,0
12/20/2013,223.1,222,223,100,406236,90563382,0
12/23/2013,223.5,221,221.6,18,5696,1261789.5,0
12/24/2013,221.6,221,221.2,4,246,54426,0
12/26/2013,221.2,219,220,20,12514,2755273,0
12/27/2013,225.5,220.5,225,148,370501,83068826.9,0
12/30/2013,230.6,227.1,230.5,215,872515,200028491.3,0
12/31/2013,230.5,224.5,227.3,88,430238,98863795,0
1/2/2014,230,228,229.2,75,249479,57338971.9,0
1/3/2014,230,228.1,228.9,59,87469,20061550.9,0
1/6/2014,229,226,227.5,88,418234,95682714.6,0
1/7/2014,228,227,227.8,113,484766,110291561,0
1/8/2014,235,227,235,178,745147,172417949.6,0
1/9/2014,235,230.1,232.5,159,1311929,306017662.5,0
1/10/2014,232,230.1,231.8,26,525480,121894324,0
1/13/2014,234.8,230,231,54,352894,81356747,0
1/16/2014,244.9,231,240.2,225,616850,147060144.9,0
1/17/2014,242,237.1,238,188,3977353,946720359.8,0
1/20/2014,243,235.5,242.7,165,629330,151361264.5,0
1/21/2014,248,242.5,247,150,262592,64641550.7,0
1/22/2014,249.5,247,249.5,133,970592,240776333.1,0
1/23/2014,250.4,247.5,248.2,220,1516558,377811615.8,0
1/24/2014,250,246.5,247,65,54867,13633854.4,0
1/27/2014,247.4,238,239.2,107,1011818,239737660.4,0
1/28/2014,243,234,235.9,141,378018,89000474.3,0
1/29/2014,241,236,240.7,26,28493,6840449,0
1/30/2014,241.8,237.2,240,37,20219,4856175.4,0
1/31/2014,240,239.2,240,53,754412,181057808.7,0
2/3/2014,239.9,233.5,235,142,1601997,378476229.7,0
2/5/2014,235,231.5,232.2,220,1034346,240707628.7,0
2/6/2014,231.6,228.1,229,198,10755095,2463402476,0
2/7/2014,233,228,229.4,151,797214,183063454.2,0
2/10/2014,230,228,228.9,40,2203230,500538555.5,0
2/11/2014,229.9,223.2,224.8,161,5318856,1182022032,0
2/12/2014,228.9,222,225.3,138,262061,58680531.4,0
2/13/2014,225,221.2,222,130,805484,179209669.2,0
2/17/2014,221.7,218.2,219.9,168,422830,93176733.9,0
2/18/2014,219,218,218.4,59,24628,5371508.2,0
2/19/2014,218.8,215,215,292,1261521,271565659.6,0
2/20/2014,216,214,214.4,136,319220,68524745.6,0
2/21/2014,215,211,212.3,185,2208953,464476100.2,0
2/24/2014,213,209,209,282,1030985,216497061.2,0
2/25/2014,209,206,206.3,201,447851,93097057.8,0
2/26/2014,215,206,212,113,113814,24106450.6,0
2/28/2014,224,213.1,220.7,277,458938,100577731.2,0
3/3/2014,223.5,218,218.5,70,25796,5647694.4,0
3/4/2014,221.5,218,220.1,89,85636,18807701.6,0
3/5/2014,222,218,220,78,38605,8466939.1,0
3/6/2014,225.5,218.5,224.9,160,186455,41742619,1
3/7/2014,230,225,228,126,127397,29038126.4,0
3/10/2014,228.6,226.9,227,167,128686,29302781,0
3/11/2014,227,225,225,190,268784,60700530.8,0
3/12/2014,225,223.5,224.5,91,577586,129505915.6,0
3/13/2014,224.5,220,222.8,114,192508,42992995,0
3/14/2014,223.5,219.1,220,53,393739,86725183,0
3/17/2014,221.8,218,218.1,42,6917,1511498.2,0
3/18/2014,220,218.1,219,114,1256631,274271740.1,0
3/19/2014,219.3,218,218,76,1738731,379529521.4,0
3/20/2014,219.5,218,218.1,57,206027,44930527.5,0
3/21/2014,220,218.1,218.9,26,8196,1800993.2,0
3/24/2014,220,217.5,219.5,43,53196,11634871.8,0
3/25/2014,219.5,218,218,62,666106,145216508.1,0
3/26/2014,219,217.1,218,129,1128912,246087389.2,0
3/27/2014,224.8,218,222.8,102,314390,69849963.6,0
3/28/2014,226,220.3,225,64,12564244,2826829077,0
3/31/2014,228,225,227,102,136712,30910365.8,0
4/1/2014,233,226.3,232.3,189,171646,39472400.4,0
4/2/2014,235,231,234,165,3803760,893522765.9,0
4/3/2014,234,231,232.7,106,9004606,2106060683,0
4/4/2014,234.8,228,232.7,105,18841184,4408650832,0
4/7/2014,236,232,234.4,87,282591,66100681.2,0
4/8/2014,239.8,233,238.8,68,481397,112769061.1,0
4/9/2014,240,237.1,239.9,108,354610,85042497.2,0
4/10/2014,239.9,237,238,30,36957,8795885.5,0
4/11/2014,238.2,236.5,238,104,621194,147843077.3,0
4/16/2014,238,237.5,238,51,1230297,292810200,0
4/17/2014,238,237.5,238,32,98297,23389183.1,0
4/21/2014,240,237.1,239,63,636907,151647379.8,0
4/22/2014,240.1,239.1,239.9,91,431181,103443279.5,0
4/23/2014,239,238.6,239,101,255120,60971231.3,0
4/24/2014,239.3,235,237.5,66,1304801,311757789.5,0
4/25/2014,239,232,234.9,40,4783,1129101.6,0
4/28/2014,236.5,235,235,55,144899,34073818.2,0
4/29/2014,238,236,238,66,69330,16468416.7,0
4/30/2014,238,237,238,53,749900,178462152,0
5/2/2014,238,236.2,237,31,34232,8141268.1,0
5/5/2014,237.8,232,235,54,224304,52744094.6,0
5/6/2014,237,233.9,234.1,33,120558,28330420.1,0
5/7/2014,235,234.2,235,65,742584,174504189.8,0
5/8/2014,235,233.5,234.6,51,200650,47114731.2,0
5/9/2014,237,234,234.8,53,333105,78278770,0
5/12/2014,237,234.2,235,53,358430,84230931.2,0
5/13/2014,235,234,234.5,28,5952,1396940.8,0
5/16/2014,235,234.1,235,53,3629396,852905180.5,0
5/19/2014,235,234,234,21,265502,62379080.5,0
5/20/2014,234.9,234,234,58,212483,49721960,0
5/21/2014,235,232.7,233.6,88,317648,74415723.8,0
5/22/2014,232.6,231,232.4,44,65816,15294481.8,0
5/23/2014,234.4,232.4,234,45,1236538,289303009.2,0
5/26/2014,234,232.9,234,31,164172,38414030,0
5/27/2014,233.5,231.5,233.1,27,22972,5352875,1
5/28/2014,233.5,231.5,233,29,14270,3322278.5,0
5/29/2014,234,232.5,234,74,1316593,308065317.5,0
5/30/2014,234.9,233,234,87,471235,110262055.1,0
6/2/2014,239.7,234,235,71,362340,85147509,0
6/3/2014,236,234.6,235,29,13672,3213065.6,0
6/4/2014,235,234.1,235,56,2190791,514830946.6,0
6/5/2014,235,234.5,235,48,2222729,522340947.5,0
6/6/2014,235,234.7,234.9,74,344718,80990887.7,0
6/9/2014,235,234.4,234.8,127,3228032,758554217.4,0
6/10/2014,234.9,234.4,234.5,30,443076,103995225.8,0
6/11/2014,235,234.3,234.5,78,3278716,768859020.1,0
6/13/2014,234.5,234,234,47,684719,160544405,0
6/16/2014,234,233,234,34,139553,32653334.4,0
6/17/2014,234,231.1,232.6,50,359790,83906938.3,0
6/18/2014,231.1,226,227.1,127,69403,15876868.2,0
6/19/2014,227,221,222.1,361,789710,179198982,0
6/20/2014,224,220,220.7,493,1217821,268260557,0
6/23/2014,224.8,220,220,347,844127,186085307.3,0
6/24/2014,230,220,221.8,139,1415163,313176901,0
6/25/2014,224,223,223.9,151,1099002,245180253.8,0
6/26/2014,224.5,222.5,222.8,101,137964,30765918.6,0
6/27/2014,224.9,219.9,220.1,471,1735661,383118215.7,0
6/30/2014,220,219.7,219.9,186,2228628,490143889.3,0
7/1/2014,224.9,219.7,222.3,655,12438005,2736945077,0
7/2/2014,227,223.5,226.1,113,223301,50395074.7,0
7/3/2014,226.5,221.2,222.9,121,771204,170670201.9,0
7/4/2014,226,221.1,225,63,343043,77169719.7,0
7/7/2014,228,225,227.1,107,1079387,243549296.9,0
7/8/2014,235.4,227,234.6,332,775169,180689339.4,0
7/9/2014,239,230.5,237.6,242,517089,121762069,0
7/10/2014,240.7,237.5,240,439,2473385,593467630.9,0
7/11/2014,243,239.1,240,271,905780,218003131.8,0
7/14/2014,240.9,237,240.3,106,118693,28488674.8,0
7/15/2014,243.5,240,242.4,128,566969,137184488,0
7/16/2014,245,242,244.9,301,1628323,398637079.6,0
7/17/2014,245.6,244.5,245,186,1139122,279097996.3,0
7/18/2014,245.7,240,245,189,915655,224227588.1,0
7/21/2014,247,244,246.7,108,164271,40423379.7,0
7/22/2014,247.5,244,244.5,38,1087072,266825336.8,0
7/23/2014,245,238.1,239.9,75,207706,50687242.1,0
7/24/2014,242.7,238,239.8,88,358650,86064891.2,0
7/25/2014,240,238.1,238.7,32,30112,7221302.9,0
7/28/2014,238.5,237,238,48,67098,15957608,0
7/30/2014,238,236.1,237,122,615223,145946135.2,0
7/31/2014,237.6,236.5,236.8,73,347547,82343764.7,0
8/1/2014,237,235.3,235.5,63,254492,59973731.2,0
8/4/2014,237.5,235.5,237,22,43411,10287150.6,0
8/5/2014,237.5,236.2,236.9,39,475501,112456194.1,0
8/6/2014,240,236.1,238,77,1336569,317541243.5,0
8/7/2014,241.6,238.5,240,87,2116308,504830118.3,0
8/8/2014,242,239,239.2,93,726320,174033465.8,0
8/11/2014,240,239.4,239.5,119,362823,86928581.7,0
8/12/2014,240,238,238,48,493716,118216671,0
8/13/2014,239.5,238,239.1,52,49702,11894222.5,0
8/14/2014,239.9,238,238.9,85,1094036,261485962.3,0
8/15/2014,240,237.5,238,43,7437612,1754032683,0
8/18/2014,240,238,240,82,4033818,968090884.2,0
8/19/2014,245,238,244.4,198,30287303,7269855903,0
8/20/2014,247.8,243,245,153,229678,56566794.8,0
8/21/2014,250.4,245,248.7,161,506229,126209870.5,0
8/22/2014,249,245,245,97,4253174,1041945868,0
8/25/2014,246,242,243,126,1113764,270646301,0
8/26/2014,243,241.2,242,39,1773588,432363438.6,0
8/27/2014,246,242.9,245,84,156343,38231314.3,0
8/28/2014,249.9,245.1,248.9,140,129937,32339512.4,0
8/29/2014,249,247,249,104,278344,69298312.6,0
9/1/2014,249.7,248.1,249.5,52,243553,60737727,0
9/2/2014,248,245.1,247.6,10,3608,893176.1,0
9/3/2014,249.7,246,249.5,200,768890,191830556.5,0
9/4/2014,250,248,249.9,135,1172800,293068173.1,0
9/5/2014,250,249,250,112,887793,221916348.5,0
9/9/2014,256.8,250,256.1,276,1384334,353051195.1,0
9/10/2014,259.5,256.5,259.1,180,955715,247105696.2,0
9/11/2014,260,258,259,155,1073742,278974370.5,0
9/12/2014,260,258.5,259.5,79,109301,28331165.1,0
9/15/2014,259.4,258,258.3,44,92895,24037733.5,0
9/16/2014,259,257.1,257.9,82,553448,142730994.1,0
9/17/2014,258.5,257,258,150,1856041,478855401.9,0
9/18/2014,260,257.6,257.8,50,1147947,296080871.8,0
9/19/2014,259,256,256.7,71,523429,135013700,0
9/22/2014,259,253,254.1,97,185314,47280919.4,0
9/23/2014,255,250,253.9,52,1968387,496940178.5,0
9/24/2014,255,250,254.8,52,428996,107538430.1,0
9/25/2014,255,251,253.5,23,16918,4276899.2,0
9/26/2014,255,250,251.2,86,4526079,1135795492,0
9/29/2014,253.5,250.1,251,156,8555944,2147479916,0
9/30/2014,255,251,253.7,100,7897828,1983339833,0
10/1/2014,258,255,255.7,52,545951,139455061.2,0
10/2/2014,261,256,260.6,210,1566629,406363618.9,0
10/3/2014,263,259,259.8,122,1529827,400347211.6,0
10/7/2014,260,253,253.1,56,1370797,348029157.4,0
10/9/2014,255,250.1,252,109,1051186,264580855.5,0
10/10/2014,254,250,250.9,144,2742692,685854614.4,0
10/13/2014,255,249,249.3,122,944974,236258963.4,0
10/14/2014,249.9,245.2,247.1,115,490492,121428278.6,0
10/15/2014,250,248.6,249.9,41,151674,37892028,0
10/16/2014,250,249,250,75,615846,153606782,0
10/17/2014,249.9,248,248,52,191253,47467420.7,0
10/20/2014,250,247,247.2,52,240311,59561377.7,0
10/21/2014,248,246,246.5,98,1130840,279320845.7,0
10/23/2014,250,246,249.8,160,1410438,351612468.4,0
10/24/2014,249.9,247.5,248,45,575018,143260368.2,0
10/27/2014,252,249,249.9,93,548577,136962586.1,0
10/28/2014,252,249,249.1,70,3068455,766942649.9,0
10/29/2014,250,248,249.8,95,2535850,631715568,0
10/30/2014,255,250,255,89,1939196,492630430.4,0
10/31/2014,258.9,255,257.2,104,949060,243574476.3,0
11/3/2014,258.5,257,257,71,1146493,295755321.9,0
11/4/2014,257.9,252.5,253.1,38,210380,53523334,1
11/5/2014,257,254,255,90,1941781,496527161.7,0
11/7/2014,258.5,255,258,167,1659938,427973387.2,0
11/10/2014,259.8,257.5,258.9,145,894649,231687351.9,0
11/11/2014,258.9,257.5,258,61,1485042,383545313.7,0
11/12/2014,259,258,258.7,44,162244,41979269.3,0
11/13/2014,260,258,258.7,86,1488922,385583414.5,0
11/14/2014,259,256,257.9,18,7227,1865467.8,0
11/17/2014,257,250,253.8,26,6355,1619524.5,0
11/18/2014,255,253,253.2,41,118851,30074502.9,0
11/19/2014,256,252.2,253.1,32,129879,32995435.4,0
11/20/2014,255.1,253,254.5,83,392711,99930015.1,0
11/21/2014,254,252.5,253.2,116,532595,134952679.5,0
11/24/2014,252.1,240.2,247.5,108,126281,31293245.1,0
11/25/2014,250,242.5,244.6,129,293910,72298739.8,0
11/26/2014,246,241.1,242,137,1622112,395335245.3,0
11/27/2014,244.5,240,242.2,137,306025,73922426.5,0
11/28/2014,242,240.1,240.8,102,239881,57717345.6,0
12/1/2014,246,242,245.1,67,257203,62971324,0
12/2/2014,248.8,244.5,246.2,90,173371,42546252.8,0
12/3/2014,255,246.9,253.8,161,1892176,480844321.6,0
12/4/2014,255,252,253.8,100,125074,31791374.4,0
12/5/2014,254.7,250,252,67,202960,51230042.1,0
12/8/2014,251.5,247.5,249.1,29,112169,28042507.5,0
12/9/2014,253,247,250.4,66,429374,106773869.8,0
12/10/2014,255,250,254.2,91,428502,108895873.1,0
12/11/2014,255.5,254.5,255,171,1379684,351743436.3,0
12/12/2014,255,253,253.1,22,41877,10621763.4,0
12/15/2014,254.8,252,252,30,204189,51524645.4,0
12/16/2014,252,250,250,86,448334,112594390.3,0
12/17/2014,250,245,246.2,200,750011,185146407.4,0
12/18/2014,248,244.9,247,117,793283,194950099,0
12/19/2014,252.9,248,251.3,56,100833,25278939,0
12/22/2014,253,250,250,42,91530,22962415,0
12/23/2014,251,248,249.3,63,227730,56681992.7,0
12/24/2014,250,248,250,27,210258,52208432.8,0
12/26/2014,253,250,250,11,11216,2805326.5,0
12/29/2014,250,248,248.5,55,242094,60165200.1,0
12/30/2014,250,248,249.2,36,779043,194305336.5,0
12/31/2014,250,248.5,250,35,301267,74851592.3,0
1/2/2015,250.3,248,248,85,180149,44763985.2,0
1/6/2015,248,245,245,235,1516857,372322488.1,0
1/7/2015,245,243,244.2,116,241076,58978274.6,0
1/8/2015,249,242.5,243.7,122,789810,192119537.2,0
1/9/2015,243,241.5,242,258,395500,95740910.5,0
1/12/2015,246,241.4,241.5,338,987919,238702583.5,0
1/13/2015,249,241.5,241.8,303,1388234,335528057.9,0
1/16/2015,241.9,240,240.6,128,282583,68106766.4,0
1/19/2015,240.6,237,237.1,114,254311,60442381.5,0
1/20/2015,239.9,234.8,235,175,394097,93033805.8,0
1/21/2015,235,228,229.4,168,243942,56288708.9,0
1/22/2015,228.1,222,226.2,332,857667,191775584.5,0
1/23/2015,226.5,223,223.1,134,915705,204312606.2,0
1/26/2015,229.5,223,228.2,138,164407,37284976.1,0
1/27/2015,236,229.9,235,227,1472862,344176668.9,0
1/28/2015,237,233.5,233.7,158,1875400,440205124.1,0
1/29/2015,233.5,224,225,299,585327,133130322,1
1/30/2015,220,213,213.7,582,695279,149784502.1,0
2/2/2015,213.7,200,200.4,"1,242",2763292,560899809.4,0
2/5/2015,205,200.5,201.6,"1,111",7642813,1538677315,0
2/6/2015,209.5,205,209,"1,060",3085076,642423851,0
2/9/2015,214,209,212,671,1298221,275325726.2,0
2/10/2015,220.4,212,219.6,518,2801623,611051414.2,0
2/11/2015,222,218.7,220,312,3144494,691237769.3,0
2/12/2015,220,217,217.7,208,284530,61955026.3,0
2/13/2015,218,215,215.4,190,338042,73150355.3,0
2/16/2015,216,212,212.9,149,341335,72895002.7,0
2/18/2015,213.9,208,209.6,254,687160,145076548.8,0
2/19/2015,212,208,208.4,414,1635982,343102976.6,0
2/20/2015,209,207.1,208,282,707683,147173140.3,0
2/23/2015,209,207.2,207.5,259,751748,156371238.2,0
2/24/2015,208,207,207,231,569815,118159307.8,0
2/25/2015,207,206,206,299,1173663,242380403.3,0
2/26/2015,206.5,204.8,204.9,638,2263446,464604992.6,0
2/27/2015,205,204.5,204.7,284,788044,161317357.3,0
3/2/2015,205,202.5,204.4,339,683032,139423723.3,0
3/3/2015,210,204.1,205,674,4835568,991291747.9,0
3/4/2015,209,204.7,204.9,125,466025,95538266,0
3/6/2015,208.9,204.5,204.9,110,2098777,430244779.2,0
3/9/2015,205,204.8,204.8,96,1429676,293081927.4,0
3/10/2015,205,204.4,204.5,128,703862,144257628,0
3/11/2015,205,204.5,204.6,129,1605596,329122150.1,0
3/12/2015,210,204.9,207,134,299430,61657539.4,0
3/13/2015,209.5,206,206.9,55,30979,6411666.1,0
3/16/2015,209.4,204.5,205,202,964107,197659247.9,0
3/17/2015,205,204.5,204.9,194,1242912,254678252.3,0
3/18/2015,208.5,204.8,205,148,1200425,246110211.6,0
3/19/2015,209,206.7,207.7,63,15050,3136029.5,0
3/20/2015,209,206.5,207.9,83,68538,14252992.4,0
3/23/2015,209.2,207,207.3,136,361958,74896996.3,0
3/24/2015,208,205.5,205.8,83,41420,8563308.6,0
3/25/2015,207,204.1,204.5,135,111038,22823726.9,0
3/26/2015,206.8,201.5,201.9,254,613089,124214733.7,0
3/27/2015,205,199.6,200.5,392,929619,186571435.8,0
3/30/2015,202,195.5,196.2,207,156514,30954296.9,0
3/31/2015,201.9,195,199.4,300,304112,60146236.6,0
4/1/2015,203.3,200.6,201.4,145,49949,10058710,0
4/2/2015,206.5,201.6,202.1,210,306366,62204342.3,0
4/6/2015,205,201.5,202,60,12437,2518429.3,0
4/7/2015,203,201.3,202,89,915897,185012013.8,0
4/8/2015,205,203,204.5,102,400506,81917906.9,0
4/9/2015,204.9,203,204.1,77,920526,188199190.1,0
4/10/2015,204.9,202,203,67,58785,11956521.7,0
4/15/2015,208,204.9,206.9,125,1849779,380542287.2,0
4/16/2015,214,206.5,209,139,693667,145028850.5,0
4/17/2015,210,206.6,209,99,769400,160795267.4,0
4/20/2015,209.9,206.8,208,93,447211,93026510.8,0
4/21/2015,208.9,206,206.7,57,22935,4740341.6,0
4/22/2015,208.5,206,206.9,56,18047,3730516.5,0
4/23/2015,208,206,206.6,48,73283,15143431.7,0
4/24/2015,208,207,207.5,43,21783,4519987.3,0
4/27/2015,208.9,207,208,86,190308,39582555.8,0
4/28/2015,208,207,207,61,395081,82058529,0
4/29/2015,210,206.6,206.9,161,833793,172642591.2,0
4/30/2015,209,206,206.2,165,103015,21260394.5,0
5/5/2015,208,205.5,206,95,751906,155595126.8,0
5/6/2015,206.6,205,206.6,82,101174,20801185.8,0
5/7/2015,206.5,204.2,204.8,93,220592,45333171.2,0
5/8/2015,205,204.4,204.5,48,20688,4230894.3,0
5/11/2015,205,202.9,203,160,674326,137383028.6,0
5/12/2015,206.5,202,202.8,182,279357,56739547.8,0
5/13/2015,203,201,201.4,184,778911,157233032.9,0
5/14/2015,201,199.9,200,351,1485360,297079901.4,0
5/15/2015,200,199.5,200,193,614553,122903689.1,0
5/18/2015,205,200,201,79,614448,123539276.3,0
5/19/2015,204.9,201,201.5,91,398744,80416840.3,0
5/20/2015,204.9,201.3,204.5,82,124818,25501583.2,0
5/21/2015,204.4,201,204,53,259574,52920133.9,0
5/22/2015,205,201.8,201.9,43,46101,9356927.2,0
5/25/2015,201.8,200,200,134,130833,26195197.5,0
5/26/2015,205,200,200.3,188,140624,28311721,0
5/27/2015,204.4,200.4,200.6,113,106994,21569657.1,0
5/28/2015,201.9,199.5,200,152,652548,130640216.6,0
5/29/2015,200,194.9,195.1,445,673103,132371293.5,1
6/1/2015,195,193.9,194.1,256,827135,161034756.5,0
6/3/2015,196,193,193.6,201,191587,37190381.7,0
6/4/2015,194,190.9,191,236,622514,119274970.8,0
6/5/2015,197,192,195,136,94519,18311427,0
6/8/2015,199.9,189.9,190,475,771353,146956342.8,0
6/9/2015,194,191,191.5,59,40828,7818973.3,0
6/10/2015,192.5,190.2,190.5,189,181721,34697115.5,0
6/11/2015,192.9,190.1,190.6,132,421845,80332247.4,0
6/12/2015,195,190.1,194.3,109,3060888,583724204.7,0
6/15/2015,197,193,194.4,91,695840,134375395.7,0
6/16/2015,196.9,193.1,193.1,66,1407132,271652495.4,0
6/17/2015,197,193.5,195,132,5195716,1008167028,0
6/18/2015,198.5,196,198.2,94,55351,10935210.5,0
6/19/2015,199,197,197.8,75,66463,13159154,0
6/22/2015,200.9,198,200.1,135,70497,14056292.9,0
6/23/2015,210,201,207.4,379,896224,186413300,0
6/24/2015,209.9,205,206,143,50258,10461872.9,0
6/25/2015,208,201,205,111,546404,111941212.8,0
6/26/2015,205.1,202.2,203.9,121,527305,105747501.9,0
7/3/2015,184.8,180,182.3,353,307148,55977750.2,0
7/6/2015,183.5,182,182.1,121,453073,82745316.3,0
7/7/2015,182.8,180,180.1,168,1271204,229536518.8,0
7/8/2015,180.1,175,175.3,283,263419,46543335.9,0
7/9/2015,179.9,175.5,179,105,397820,70845270.7,0
7/10/2015,183.5,178.5,182.8,177,384938,69610337.1,0
7/13/2015,183.5,182,183,135,74327,13604731.7,0
7/14/2015,183.4,183,183,188,441789,80854028.4,0
7/15/2015,184,183.1,184,138,221660,40783148.5,0
7/16/2015,184.9,182.8,183,121,2369162,433580184,0
7/17/2015,184,182.5,182.9,97,954006,174396492.6,0
7/20/2015,184.9,183.9,184,83,994591,182091497.8,0
7/21/2015,185.9,183.6,185,65,74617,13792883.9,0
7/22/2015,189.8,185.9,188.8,248,1186302,221768918.5,0
7/23/2015,191.8,189.7,190,354,1412138,268901879.1,0
7/24/2015,195,190.5,193.5,356,1259641,244004770.9,0
7/27/2015,194.6,192.6,193.8,264,697616,135031808.9,0
7/28/2015,195.4,193.5,195.1,182,1312848,254791097,0
7/29/2015,198.8,195.1,198.4,360,1400339,277642701.2,0
7/30/2015,199,195.2,197,232,1826946,359585071.8,0
8/3/2015,198,194,194.3,152,200483,39350261.6,0
8/4/2015,195.4,190,191.9,176,1971073,377199533.8,0
8/5/2015,193,190,190.1,154,1766683,335591687.4,0
8/6/2015,194,192,193,90,1865996,354825810,0
8/7/2015,193,192,192.5,46,46386,8928270.5,0
8/10/2015,192.5,190.9,191,58,783249,148885951.9,0
8/11/2015,195,190.1,194.1,170,164499,31761336.4,0
8/12/2015,194.9,192.2,193.1,71,318164,60643995.4,0
8/13/2015,194,192,192,105,486439,92812034.4,0
8/14/2015,193.6,191,192.2,114,92461,17774952.5,0
8/17/2015,193,191.3,192.6,127,304104,58594030.7,0
8/18/2015,193,190,190.4,132,163844,31428362.9,0
8/19/2015,193,190.1,191,116,1951286,372569283.4,0
8/20/2015,194,190.4,190.6,57,53257,10168433.7,0
8/21/2015,192,189.5,189.5,110,220384,42031273.8,0
8/24/2015,190,183,183.9,294,559607,103438315.7,0
8/25/2015,183.9,179.5,180,363,1141804,206457233.8,0
8/26/2015,183,175,175.1,928,7006197,1229938971,0
8/27/2015,180,177.8,178,311,2987062,528010311.7,0
8/28/2015,184,179.5,183.7,260,320143,58587585.2,0
8/31/2015,184.8,180,180.6,192,178344,32257577.1,0
9/1/2015,183,178.7,180,94,47151,8455627.4,0
9/2/2015,181,175,177.4,372,537326,95239990.8,0
9/3/2015,180,176.5,177.1,85,324737,57372453.1,0
9/4/2015,179.8,176.6,177,131,108690,19287636.9,0
9/7/2015,179,176.8,177.3,140,291769,51800156.7,0
9/8/2015,177.5,174.6,175.2,276,554279,97165309.2,0
9/9/2015,177,174.6,175.2,85,84779,14860033.4,0
9/10/2015,177,174.8,175,156,177948,31171892.4,0
9/11/2015,178,175,175,102,70976,12435336.2,0
9/14/2015,178,173,174,181,1214316,211458422.2,0
9/15/2015,175.9,173.9,174.1,102,199398,34826078.4,0
9/16/2015,175.9,173.9,175,69,65734,11501000.1,0
9/17/2015,175,173,173.3,105,58834,10216640.9,0
9/18/2015,174.9,171.2,172.3,244,1042357,180630193.2,0
9/21/2015,174.9,172,173,108,931320,161124563.3,0
9/22/2015,177,173,175.3,476,890320,155674317.2,0
9/23/2015,178,172,174,339,809437,141523722.7,0
9/25/2015,175.9,173,174.5,155,522632,91206396.3,0
9/28/2015,175,172.7,173,258,1800638,312271017,0
9/29/2015,175.9,172.3,172.7,214,959017,166525991.5,0
9/30/2015,173,167.5,169.7,368,1543695,262292281.2,0
10/1/2015,172,170,170,159,3050978,521429757.9,0
10/2/2015,172,169.8,170,168,4518932,768226358.1,0
10/5/2015,172,166,168.2,226,164506,27812837.4,0
10/6/2015,170,166,169.7,138,744431,123655653.5,0
10/7/2015,172.5,169,171,88,428062,73191449.1,0
10/8/2015,174.4,170,173,143,164234,28362771.8,0
10/9/2015,174,169,170,107,401857,68362894.3,0
10/12/2015,172,169,170,97,102349,17399372.2,0
10/13/2015,171.9,168.9,170.1,58,647139,110013800.8,0
10/14/2015,172,170,170,64,42922,7303875.3,0
10/15/2015,171.8,170,170.5,49,165592,28226722.2,0
10/16/2015,171.7,169.9,170,106,257660,43807441.4,0
10/19/2015,171,170,170.5,42,88334,15084055,0
10/20/2015,171.8,170,171,93,1805723,308779331.1,0
10/21/2015,172,171.5,171.6,62,1901994,326218089.7,0
10/22/2015,177.9,171.5,175.1,116,140751,24531844.1,0
10/23/2015,177,175,175.6,73,2372320,415172069.1,0
10/26/2015,178,175.1,177.1,49,26239,4644192.6,0
10/28/2015,180.5,177.1,179.8,147,231124,41438989.1,0
10/29/2015,181.1,178.1,179.1,157,351811,63246817.8,0
10/30/2015,178,173,174.6,94,315434,54764598.9,0
11/2/2015,177.9,175,176,51,66137,11597118.3,0
11/3/2015,178.1,176,177.1,134,276671,49191980.5,0
11/4/2015,179.8,177,179,158,236469,42127780,0
11/5/2015,181.8,179,181.5,203,522047,94121396.9,0
11/6/2015,187,182,186,580,2042090,378375209.8,0
11/9/2015,186,183,184,168,738217,135838790.8,0
11/11/2015,184.1,182.6,184,224,925521,170033437.8,0
11/12/2015,184.5,183.5,184,205,539619,99291302.5,0
11/13/2015,184.1,183.5,184,141,725371,133468278.2,0
11/16/2015,184.1,182.6,183.4,90,156529,28706065.5,0
11/17/2015,184.5,183.1,184,128,185385,34067222.3,0
11/18/2015,184,182.7,183.5,82,362583,66616849,1
11/19/2015,186.5,184.3,185,158,352220,65172494.9,0
11/20/2015,186.5,185,185.8,85,354918,65875214,0
11/23/2015,191,187,188.9,237,231915,44096782.9,0
11/24/2015,190,186,188.5,291,700499,131956332.4,0
11/26/2015,188,183.5,186,412,1420695,262800167.5,0
11/27/2015,187,184,184.6,157,140129,26020486,0
11/30/2015,182,177.5,179.9,328,2239935,402456535.9,0
12/1/2015,183,180,181.7,197,246652,44766866.3,0
12/2/2015,181.8,179,180,92,7115223,1287757672,0
12/3/2015,182.8,180,180.7,177,367577,66491349.3,0
12/4/2015,181.8,179.5,180,39,229586,41335986,0
12/7/2015,180,179,179.7,112,203537,36579574.1,0
12/8/2015,180,178.5,179.5,124,465874,83681155.5,0
12/9/2015,180,179,179,72,122837,21998054.1,0
12/10/2015,179.9,177.5,178.2,146,356799,63768556.1,0
12/11/2015,178.9,175,175.9,185,379054,67087441.3,0
12/14/2015,177,173.7,174,149,592146,103558530,0
12/15/2015,176.9,173.7,176,48,28694,5031099.5,0
12/16/2015,176.1,175.7,175.9,59,52344,9209573.1,0
12/17/2015,178,175.9,176,203,683432,120295752.9,0
12/18/2015,180,176,179.9,94,181940,32436917.5,0
12/21/2015,180,178,180,149,515887,92818229.8,0
12/22/2015,180,174.9,175,229,837746,146646390.7,0
12/23/2015,177.8,175,175.9,75,133881,23508482.4,0
12/28/2015,178.9,175,177,61,116482,20622381.6,0
12/29/2015,178.9,177.5,178.1,34,189223,33689012.8,0
12/30/2015,179.7,177.5,178.7,60,105148,18810775.5,0
12/31/2015,179,177,178.1,59,651897,116221198,0
1/4/2016,179,177,177.2,59,285322,50709765.8,0
1/5/2016,177.5,176.5,176.8,54,10581,1870881.4,0
1/6/2016,177.5,176,176.1,94,133449,23556098.7,0
1/7/2016,176,171,173,171,949036,162677780.9,0
1/8/2016,173.1,172,172.2,83,20249,3491700.2,0
1/11/2016,172.5,169,169.4,282,1921187,325783647.9,0
1/12/2016,169.2,166.1,166.3,225,480076,80210111,0
1/13/2016,169,166.1,168,130,1011191,169872760,0
1/14/2016,169,165,165.1,223,1336187,222276758.9,0
1/18/2016,168,160.5,160.7,279,2024574,330870846.1,0
1/19/2016,163,158,159.9,236,304505,48521695.8,0
1/20/2016,162,156,156.3,249,206421,32495745.4,0
1/21/2016,162,156.2,156.8,248,2081139,326685982.1,0
1/22/2016,161,156.8,158.1,198,331497,52766584.8,0
1/25/2016,162,156,157,281,910345,142953530.6,0
1/26/2016,160,150.1,153.7,620,996373,153147162.4,0
1/27/2016,155.8,152.2,153.5,243,328834,50476236.9,0
1/28/2016,155,153.1,153.5,253,1532602,234849031.2,0
1/29/2016,157,154,154.6,132,113889,17621066,1
2/1/2016,159.5,157,157.9,153,292824,46293375.4,0
2/2/2016,162.5,157.8,161,278,468164,75258464.9,0
2/3/2016,163,159,159.8,203,468628,75013018.9,0
2/5/2016,163,159.8,160.3,93,235196,37673060,0
2/8/2016,164,162,163.9,127,45104,7378051.2,0
2/9/2016,164,162,163,107,595855,97139194.9,0
2/10/2016,165,161.6,163,166,321012,52408961.9,0
2/11/2016,163.5,159.1,159.1,125,121006,19356462.7,0
2/12/2016,160,155,155.1,243,924862,143561477.9,0
2/15/2016,160,155,156,96,734534,114572907.9,0
2/16/2016,159,156,157.7,78,442953,69552458.1,0
2/17/2016,158.9,156.5,157,174,795540,124900646.4,0
2/18/2016,159.9,156.5,157.1,129,368921,57987619.9,0
2/19/2016,159.9,157.1,158.9,88,649007,102248260.8,0
2/23/2016,160,158,159.7,56,624470,99199551.5,0
2/24/2016,159.9,158.9,159.5,97,658204,104982048.4,0
2/25/2016,160,159.1,159.5,216,915082,146053515.1,0
2/26/2016,160,159,159.3,105,4052019,645360908.5,0
2/29/2016,161,159.1,159.4,66,1273567,204029980.2,0
3/1/2016,159.5,157.5,158,64,128428,20373479.9,0
3/2/2016,158.5,155,155.4,115,4825011,752155274.5,0
3/3/2016,156,153.6,154,79,1033339,160144188.8,0
3/4/2016,155,153.8,154,64,929364,143121866.3,0
3/8/2016,154.5,150,150.8,197,505026,76069280.4,0
3/9/2016,151.9,150,150.8,296,1882192,283193363.9,0
3/10/2016,154.9,150.5,152.9,104,778422,117354383.6,0
3/11/2016,154,153,153.5,50,30795,4737578.7,0
3/14/2016,155,150.1,150.5,121,1218271,183407715.5,0
3/15/2016,151,150.3,150.5,138,623888,93894368.9,0
3/16/2016,153,150,150.2,138,1562306,234887757,0
3/17/2016,152.2,150,151.2,91,2106412,315988217.5,0
3/18/2016,151.5,150,150.5,90,367398,55118427.7,0
3/21/2016,151.5,149.5,150.1,121,1166121,174921924.6,0
3/23/2016,152,140,150,94,623460,94018959.5,0
3/24/2016,152.5,150,152,62,76554,11622154.6,0
3/28/2016,153,150.2,150.5,74,104842,15808339.8,0
3/29/2016,151,147.3,147.6,200,119140,17619740.1,0
3/30/2016,150,147,148,138,1909855,283947316.7,0
3/31/2016,149,147,148,52,510495,75552743.9,0
4/1/2016,151,148,149.1,75,1023392,152427857.7,0
4/4/2016,151.9,147.8,148,117,1084455,160576295.5,0
4/5/2016,150,148,149.7,85,342429,50586759.9,0
4/6/2016,150,149,150,57,760898,114112426.5,0
4/7/2016,152.5,150,151.9,48,70262,10669433.3,0
4/8/2016,152.5,151.5,151.8,68,29800,4530767.1,0
4/11/2016,152,150.2,151,130,2334184,352418416.2,0
4/12/2016,155,151,153.8,105,101493,15626063.1,0
4/15/2016,153.8,151,151,193,357182,54112062.8,0
4/18/2016,153.9,151,152.2,68,1019132,153907050.8,0
4/19/2016,153,151.5,152,110,1916044,291248598.1,0
4/20/2016,156,152,155,244,524822,81293460,0
4/22/2016,156.5,155,155.3,105,429727,66805139.1,0
4/25/2016,155.5,152,152.2,98,1028148,159248890,0
4/26/2016,155,152.7,154.8,61,28449,4389060.8,0
4/27/2016,155,153.5,154.1,85,199775,30770432,0
4/28/2016,154.8,154,154.3,48,83462,12869886.6,0
4/29/2016,155.5,154.5,155.2,174,941996,145867314.7,0
5/3/2016,158.5,156,157.9,94,202133,31994231.5,0
5/4/2016,158.9,157.1,157.4,85,43974,6938298.2,0
5/5/2016,158,156,156.1,81,1245537,194550732.5,0
5/6/2016,158,156,157,45,15948,2503986,0
5/9/2016,158,157,158,93,251369,39680576.4,0
5/10/2016,161.9,157.6,160.9,168,3916192,619079091.3,0
5/11/2016,163.7,161.5,161.8,108,58495,9484328.7,0
5/12/2016,164.9,160,163.8,169,992785,163197405.3,0
5/13/2016,165,162.5,164.5,125,80047,13185923.1,0
5/16/2016,165,164,164.5,126,203478,33533130.9,0
5/17/2016,165,161.6,162.3,121,371119,60387263.5,0
5/18/2016,163.2,159.9,160,183,2634467,421519281.8,0
5/19/2016,163,158,158.3,107,59517,9442122.5,0
5/20/2016,160,157.7,158,78,768550,121431173.2,0
5/24/2016,159.9,157,157.7,62,92842,14665108.7,1
5/25/2016,160,157.5,158,159,507345,80177114.7,0
5/26/2016,159,154.6,155.3,223,82940,12910283.1,0
5/27/2016,158.8,154.5,156,67,773636,120352847.1,0
5/30/2016,158,155.9,156,152,2227957,347860528,0
5/31/2016,159,156,156,164,2160580,337076867.7,0
6/1/2016,157.8,155.5,155.9,118,1615741,252006547.7,0
6/2/2016,156.9,156,156,63,178163,27793534.9,0
6/3/2016,157.5,156,156.5,35,79918,12505891.5,0
6/6/2016,160,156,156.2,74,158075,24818263.4,0
6/7/2016,157,156,156.5,114,1398333,218840408.7,0
6/8/2016,158,156.5,157,39,26635,4180984.8,0
6/9/2016,158.9,157,158.5,57,282929,44647187.5,0
6/10/2016,159.9,158,159.1,47,115755,18360907.6,0
6/13/2016,161.9,158.1,160.4,108,378258,60860381.2,0
6/14/2016,161.9,160.3,161.2,140,1489999,240437472.7,0
6/15/2016,162,159.1,160,117,214102,34417438.7,0
6/16/2016,160,155,156.9,104,96967,15190531.9,0
6/17/2016,159,156.4,158.9,84,240085,37708949.5,0
6/20/2016,160,157.2,159.8,89,41486,6622551.6,0
6/21/2016,160,158.1,158.9,27,17979,2858668.9,0
6/22/2016,159.9,157.8,158,74,50546,7988747.9,0
6/23/2016,158.5,156,156.1,127,34619,5437769.6,0
6/24/2016,157,153,155.5,277,134146,20674047.4,0
6/30/2016,139.7,135,135,327,859334,116490084.3,0
7/1/2016,136.5,135,135,164,380207,51631271.4,0
7/4/2016,136,135,135.4,131,441560,59640502.3,0
7/5/2016,139,135.1,138.6,130,94351,12918425.4,0
7/7/2016,140,138,139.1,174,3572132,496274641.1,0
7/8/2016,143.6,139.1,140.5,172,1225053,172368518.8,0
7/11/2016,143,140.3,140.9,136,3071110,432752077,0
7/12/2016,142,140.7,141,95,148607,21031230.6,0
7/13/2016,141.8,140.7,140.9,75,54325,7658953.3,0
7/14/2016,141.1,140,140,85,52222,7326068.3,0
7/15/2016,142.8,139.8,142.2,132,109975,15618184.9,0
7/18/2016,144,140,142,135,882460,125039029.9,0
7/20/2016,145,141.7,144.3,244,150782,21725842.2,0
7/21/2016,145,143,143.7,111,53247,7682211.5,0
7/22/2016,144,142.9,143,51,18664,2671826.3,0
7/25/2016,143,142.2,142.8,41,8070,1151319.5,0
7/26/2016,142.9,140.5,141.7,96,46474,6597963.4,0
7/27/2016,141.7,140,140.3,103,82525,11604963.3,0
7/28/2016,142.9,140,140,122,241453,33808955.3,0
7/29/2016,142,140,140.8,124,82317,11596061.9,0
8/1/2016,141.9,140.2,140.8,63,785821,110646247.3,0
8/2/2016,144.8,140.5,144.1,202,791798,113813129.8,0
8/3/2016,145.9,144.5,145,230,2554671,370676110.9,0
8/4/2016,145.2,144,145,106,383656,55618482.9,0
8/5/2016,148,145,146.4,104,28763,4226334.4,0
8/8/2016,147.9,145,147,157,150217,22075239.5,0
8/9/2016,150,146.8,149.3,295,736168,109611190.5,0
8/10/2016,154,150,152.4,358,1072439,164108964.5,0
8/11/2016,153.9,150,152.5,104,83271,12681950.5,0
8/12/2016,155.8,152.6,155,280,1263629,195515833.5,0
8/15/2016,155.8,154,155.1,135,103600,16022900.8,0
8/16/2016,159,155.4,156.5,223,717247,112608840.3,0
8/18/2016,158.5,157,158,193,2188151,345443461.1,0
8/19/2016,158.6,157.5,158,180,1704064,269237624.6,0
8/22/2016,158.8,157.6,158.5,118,178942,28314530.3,0
8/23/2016,158.9,156,156.6,134,317183,50084663.4,0
8/24/2016,157,154,154.1,91,150725,23319398.4,0
8/25/2016,155.8,152.1,154.7,67,36471,5640034.5,0
8/26/2016,154.9,151,151,95,227403,34477217.3,0
8/29/2016,153.5,150.7,152,45,28875,4405753.8,0
8/30/2016,153,151.5,151.5,53,907865,136199827.6,0
8/31/2016,153.9,152,152.5,187,586871,89483447.2,0
9/1/2016,154.1,152,153.5,68,342881,52792066.1,0
9/2/2016,154,152.6,153,56,54215,8304340,0
9/5/2016,153.5,152,152.5,53,83348,12704358.5,0
9/6/2016,152.3,150.5,150.6,75,166460,25294843,0
9/7/2016,151,149,150,205,187821,28175059.2,0
9/8/2016,150,149,149,152,172518,25825591.5,0
9/9/2016,150,148.6,149,189,297639,44358274.7,0
9/13/2016,150,148.5,149.5,214,490830,73322119.6,0
9/14/2016,151.5,149.4,149.7,186,199561,29942931.5,0
9/15/2016,149.8,148.1,148.9,133,83992,12530174.4,0
9/19/2016,149.5,148.3,149,97,70742,10527204,0
9/20/2016,149.5,148.6,148.9,89,105357,15689110.8,0
9/21/2016,153,148.9,150.6,218,2514926,376469335.6,0
9/22/2016,154,151,152,173,141003,21434845.9,0
9/23/2016,152.2,149.9,150.1,182,392907,59074113.3,0
9/26/2016,151,149.5,150.2,152,178618,26810068.7,0
9/27/2016,153,149.8,152,222,729120,110110533.1,0
9/28/2016,153,152,152.9,138,238868,36521843.8,0
9/29/2016,153.5,152,153,139,218030,33340307.9,0
9/30/2016,155,153,154,136,177989,27410130.9,0
10/3/2016,157.5,154,156,228,707635,110902603.2,0
10/4/2016,157,155,155.1,58,215456,33596698.7,1
10/5/2016,157,155.5,156,156,323738,50518713.1,0
10/6/2016,157.5,156,157,216,570337,89514804.6,0
10/7/2016,158,157.1,157.5,160,118012,18602767.6,0
10/10/2016,158,157.5,157.5,160,303787,47894360,0
10/11/2016,157.5,155,155.4,112,81866,12743553.8,0
10/12/2016,155.5,154.1,154.8,87,98803,15309059.6,0
10/13/2016,154,152.6,152.7,189,192984,29570203,0
10/14/2016,153,152,152,78,30312,4622401.5,0
10/17/2016,151,150.6,151,60,240955,36383442,0
10/18/2016,155.9,149.9,150,157,465038,70132581.7,0
10/19/2016,153,150,151,95,930301,140471811.6,0
10/20/2016,151,149.9,150,92,206055,30920102.2,0
10/21/2016,150.5,149.5,150,86,542349,81269621.5,0
10/24/2016,150.9,149.7,150,76,226974,34046964.8,0
10/25/2016,150.9,150,150.2,30,8378,1258688,0
10/26/2016,150,149.7,150,55,523263,78486640.5,0
10/27/2016,150,149.6,149.7,38,14080,2108490.1,0
10/28/2016,150,148.8,149.1,158,60440,9017800.8,0
10/31/2016,150,148.6,149,43,10483,1561900.4,0
11/1/2016,149.8,149,149.2,39,51222,7655307.1,0
11/2/2016,150.5,149,150,131,637263,95503502,0
11/3/2016,153.9,150,151.9,78,171259,26004015.9,0
11/4/2016,151.8,151,151.3,95,386072,58412295.9,0
11/7/2016,152.2,151.5,151.9,139,1742931,264916595.5,0
11/8/2016,152,150.9,151,44,41679,6322306.8,0
11/9/2016,151,149.7,150,103,318204,47738187.3,0
11/10/2016,150,149.5,149.7,55,406628,60986510.6,0
11/11/2016,151,149.4,149.5,45,16615,2487186,0
11/15/2016,149.4,147.5,147.5,160,1241315,183788528.1,0
11/16/2016,148,146.1,147,221,1558922,229160660.9,0
11/17/2016,147,144.8,145,173,344031,50015054,0
11/18/2016,147,145,146,101,178320,26029531.5,0
11/21/2016,146.5,143.8,144.3,149,649292,94055781,0
11/22/2016,146,143.9,145,129,1142347,165294029.6,0
11/23/2016,146,145.1,145.3,77,771760,111929797.6,0
11/24/2016,148,146,146.1,49,870203,127052399.8,0
11/25/2016,145.9,145,145.4,53,49034,7111575,0
11/28/2016,145.8,144.5,144.7,65,127215,18423306.7,0
11/29/2016,145.8,144.3,144.5,131,933883,134956892.8,0
11/30/2016,151,145,148.3,184,793943,117391057.3,0
12/1/2016,150,149,150,151,4693313,699428812.7,0
12/2/2016,151.9,149.5,151,124,2286449,343277340.6,0
12/5/2016,152,150,151.6,174,3483576,526029657.1,0
12/6/2016,152,151,151.5,46,66636,10106125.2,0
12/7/2016,151.9,151,151.1,117,479142,72370078.7,0
12/8/2016,156,151.1,155,341,3451410,532967593.9,0
12/9/2016,155.5,153.8,154,70,596326,91888286.2,0
12/14/2016,154.9,150,151.9,109,462730,70894047.3,0
12/15/2016,151.9,148.5,148.8,96,48702,7258473.9,0
12/16/2016,149.5,147,147.1,95,337573,50187426.4,0
12/19/2016,149.4,146.9,147,105,201456,29616149.4,0
12/20/2016,146.9,145.9,146,117,67327,9832687.3,0
12/21/2016,146,144.5,144.6,155,370315,53706306.2,0
12/22/2016,145,144.7,144.8,71,21385,3099871.4,0
12/23/2016,145,144.5,144.6,107,230476,33363244.5,0
12/27/2016,150,143,143.3,270,134269,19325413.6,0
12/28/2016,145,144,144.9,72,217810,31566540.9,0
12/29/2016,145,144.3,144.9,38,13117,1899831.2,0
12/30/2016,146,144,145,83,140515,20365543,0
1/2/2017,145,139.8,140,702,1585492,222359971.5,0
1/3/2017,140,138.1,139,249,1796527,249465149.7,0
1/4/2017,143,139,140.6,241,5607796,784542362,0
1/5/2017,141,140,140.4,208,3588777,502645402.7,0
1/6/2017,143,140,141,50,291011,41021112.3,0
1/9/2017,143,140.3,141.4,117,1990002,280594622.9,0
1/10/2017,142.9,140.5,140.5,87,84862,11981796.2,0
1/11/2017,142,140,141.9,163,6278474,879103561,0
1/13/2017,141.9,141.6,141.9,41,6231,884008.4,0
1/16/2017,141.9,141,141,55,133182,18779785.1,0
1/17/2017,141.5,140.9,141,104,2121361,299112074.7,0
1/18/2017,141,140.6,140.9,35,12460,1754449,0
1/19/2017,141,139.9,140,191,3271104,458010159.2,0
1/20/2017,141,140,140.8,22,8136,1142802,0
1/23/2017,140.9,139.5,139.5,93,595956,83431021.5,0
1/24/2017,139.5,138,138.3,194,78752,10935144.3,0
1/25/2017,138.9,137,137.5,185,287117,39469930.1,0
1/26/2017,140,137.6,137.9,109,338161,46613806.8,1
1/27/2017,141,139.4,140,215,1264267,176989162.8,0
1/30/2017,141.5,139.9,140,56,60471,8469908.5,0
1/31/2017,140.9,140,140,95,2261361,316591198.2,0
2/1/2017,141,140,140.5,47,227217,31817271.7,0
2/2/2017,141.3,140,141.1,48,32124,4510892.2,0
2/3/2017,142,140,141.2,38,16754,2363143.5,0
2/6/2017,142,140,141.9,157,595866,84242444.3,0
2/7/2017,144,141.5,143.6,156,445198,63942005.4,0
2/8/2017,146,144.5,145.5,287,1082452,157813467.8,0
2/9/2017,146.3,145.3,146,249,2563769,374268776.3,0
2/13/2017,149.9,145.7,148.4,250,1627691,238190336.1,0
2/14/2017,150,146.6,149.9,214,690385,103473052.3,0
2/15/2017,149.9,147,148,86,4008938,593343035.6,0
2/16/2017,148.3,146.8,147.2,38,600639,88590040,0
2/17/2017,147.8,147,147,25,14240,2093756,0
2/20/2017,146,144,145.2,38,4622,670763.5,0
2/21/2017,145,144.3,144.3,29,9187,1329342.5,0
2/22/2017,144.8,142,142.8,76,353102,50672019.7,0
2/23/2017,143,141,141.7,134,505059,71688136.2,0
2/27/2017,142.4,139.9,140,305,2097281,293647388.5,0
2/28/2017,144,140,142.3,97,1050090,147107314.7,0
3/1/2017,142.8,141.5,142,140,699953,99425126.9,0
3/2/2017,142.5,141.7,141.7,138,1236308,175555421.6,0
3/3/2017,142,141.6,141.7,56,6156003,874144192.5,0
3/6/2017,142,141.1,141.5,45,88744,12595025.4,0
3/7/2017,142,141.3,141.5,19,6823,967058.9,0
3/8/2017,142,141.3,141.6,30,72737,10317875.5,0
3/9/2017,141.5,140,140.1,125,1291290,180845897.5,0
3/10/2017,140.5,139.8,139.9,68,2715773,380206635.8,0
3/13/2017,140,138.1,138.5,121,102855,14272785.1,0
3/14/2017,139,138,138,184,1751327,243386948.1,0
3/15/2017,139,137.9,138,74,136312,18815087.7,0
3/16/2017,139,137.8,138,76,256280,35363872.3,0
3/17/2017,139,137.8,138.1,113,3260421,449959844.9,0
3/20/2017,140,137.8,138,115,759605,104835293,0
3/21/2017,138,137.8,137.8,62,1057957,145993071.4,0
3/22/2017,138,134.8,134.9,538,4450198,601024242.9,0
3/23/2017,135,134.8,134.9,163,1025184,138376818.7,0
3/24/2017,135,134.9,134.9,148,3714469,501429772.1,0
3/27/2017,135,134.8,134.9,91,353175,47648392,0
3/28/2017,136.6,133.9,134.9,188,2631251,352704639.2,0
3/29/2017,138,135,137,75,427099,58507148.2,0
3/30/2017,138,136.2,137,99,5896955,807882931.6,0
3/31/2017,139.8,137,137.9,136,1150938,158783653.2,0
4/3/2017,142,138,140.1,125,4222002,585023759.4,0
4/4/2017,144,140.3,143.1,180,1133365,162008413.4,0
4/5/2017,146.5,143,146,326,1471610,214502520.4,0
4/6/2017,148.4,146,148,435,1449441,214085266.5,0
4/7/2017,149.4,147.3,149,874,10651905,1587110870,0
4/11/2017,150.5,149,150,246,473776,70916851.2,0
4/12/2017,152.4,150,152,381,7155228,1087391131,0
4/17/2017,152.1,148.9,150.1,180,324147,48660910.2,0
4/18/2017,151.9,149.5,151.7,149,729376,110344651.5,0
4/19/2017,154.9,151.7,154.7,308,992059,152898602.7,0
4/20/2017,155.5,154,155,236,1677144,259951968.8,0
4/21/2017,158.8,155.3,158.4,548,16729588,2650063723,0
4/24/2017,159.5,155,157,317,461691,72681413.2,0
4/25/2017,156,154,155,223,1015455,157760245.2,0
4/26/2017,157,154.1,156.7,164,3011949,469270849.3,0
4/27/2017,159.6,156.9,159.5,329,4575584,729535930.3,0
4/28/2017,161.5,159.6,161.1,401,2801539,449893497.6,0
5/2/2017,161.5,160,160.5,89,444549,71347960.4,0
5/3/2017,160.5,157.5,159.1,121,134153,21336094.1,0
5/4/2017,163.5,159.9,162.5,174,384447,62474061.1,0
5/5/2017,164,162,163.3,102,207372,33811320.7,0
5/8/2017,164,163,163.6,86,176032,28767518.7,0
5/9/2017,163.9,162.5,163.3,84,28258,4613298.5,0
5/12/2017,164.9,163,164.1,118,905086,147766631.9,0
5/15/2017,164.5,163,164.1,85,453899,74439965,0
5/16/2017,165.9,163,165.5,178,931164,153874323.9,0
5/17/2017,167.3,164.2,167,186,5594527,938915938,0
5/18/2017,166.5,165.5,166,66,236438,39253757.4,0
5/19/2017,169,165.2,168.5,144,873691,146658171.5,0
5/22/2017,168.5,167.1,168,78,121508,20413593,0
5/23/2017,168.5,167,168,110,239431,40221714.6,0
5/24/2017,170,167.5,170,224,7791431,1324308472,0
5/25/2017,170,169.5,169.7,103,204495,34729878,0
5/26/2017,169.8,168,168.6,48,14538,2447435.3,1
5/29/2017,169.5,167,167.1,68,10076,1693041.9,0
5/30/2017,167.2,165,167,95,86962,14487997.6,0
5/31/2017,168.9,167,168,102,626447,105234805,0
6/1/2017,169.9,168.5,169,78,372814,63101326,0
6/2/2017,169.7,168.5,169.5,70,373766,63347728.9,0
6/5/2017,171,169.4,170.9,184,629815,107330083.4,0
6/6/2017,170,168.9,169.5,83,422717,71717370,0
6/7/2017,170,169,169.5,70,1312747,223125659.1,0
6/9/2017,169.5,168,168,18,21646,3656735,0
6/12/2017,168,165,167,83,819484,136767969.6,0
6/13/2017,169.8,167.1,169.4,120,3189043,539127642,0
6/14/2017,175.3,168.4,175.1,405,2882208,496862667,0
6/15/2017,178.5,175,178.2,301,3103738,552791505.8,0
6/16/2017,180,177,178,207,1912950,341383803.6,0
6/19/2017,177.4,171,172.6,172,1205363,211024532.6,0
6/20/2017,174.5,172.5,172.6,107,2695416,467537486.9,0
6/21/2017,175,172.5,174.7,78,1241410,217183590,0
6/22/2017,176.1,174,175.9,60,261714,45713660.4,0
6/23/2017,179.5,176.5,178,162,1788278,319975599.3,0
6/27/2017,179,175,178.9,115,1602122,286652361.8,0
6/28/2017,179.1,178.6,178.9,108,1635183,292695623.4,0
6/29/2017,178.9,178,178.5,45,13282,2368996.1,0
6/30/2017,179.1,178.5,178.8,103,1950437,349115596.8,0
7/3/2017,179,177.1,178.5,124,1668734,298646945.4,0
7/4/2017,178,176.4,176.5,113,977607,173523417.1,0
7/5/2017,177.4,175.5,175.6,63,1610263,285014234.9,0
7/6/2017,178,175,177,68,354050,62437448.6,0
7/7/2017,178.8,177.5,178,67,574262,102451693.6,0
7/10/2017,178.8,178,178.3,30,247203,44077218.8,0
7/11/2017,178.5,175.1,178,66,433213,77112238.9,0
7/12/2017,178,176,177,33,137370,24313897.4,0
7/13/2017,177,175,176.8,47,343577,60794920.7,0
7/14/2017,177.4,176.8,177.2,42,708652,126513909.5,0
7/17/2017,177.5,175.1,177,29,1571040,279373951.2,0
7/18/2017,176.9,176,176,43,332171,58599243.8,0
7/19/2017,176,174.9,175,89,152714,26726999.6,0
7/20/2017,175,174,174,69,1728977,302149515.9,0
7/21/2017,174,172.1,172.2,34,795340,138149468.4,0
7/24/2017,173,171,172.2,102,1744116,300331734,0
7/25/2017,174,171.5,172.5,48,57559,9901696.1,0
7/26/2017,174.2,172.7,173.9,40,27599,4800134.4,0
7/27/2017,174.1,173,174,48,19099,3321778,0
7/28/2017,174.5,173.5,174,72,126226,21963471.9,0
7/31/2017,174,172.3,173.8,59,580293,100955497.6,0
8/1/2017,174,172,172.5,78,2869507,495087689.2,0
8/2/2017,172.5,171,172,85,3350327,577635483.8,0
8/3/2017,172,170.2,170.8,40,12306,2102905.7,0
8/4/2017,171,169.5,169.8,62,123687,21015515.3,0
8/8/2017,169.1,164,165,246,478718,78995316.2,0
8/9/2017,165,164,164.9,113,2668833,440351567,0
8/10/2017,165,163.5,163.8,68,178637,29336894.2,0
8/11/2017,163.8,162,163,129,1112374,181311097.6,0
8/14/2017,168.5,163,165,55,875278,144420746.5,0
8/15/2017,165,160.5,160.8,71,712035,116006098.8,0
8/16/2017,161,159.9,160,104,1416601,226656957,0
8/17/2017,163,160.8,161.5,39,358961,57971592,0
8/18/2017,164.5,161.5,162,74,314572,50877171.6,0
8/21/2017,162.3,161,161.1,57,217116,34979304.3,0
8/22/2017,161,159.7,159.9,163,818010,130910479.5,0
8/23/2017,162,158.2,158.5,213,321917,51064792.1,0
8/24/2017,160,158,158.3,189,809029,128183214.4,0
8/25/2017,161.9,157.9,161.6,127,98099,15677676.1,0
8/28/2017,162.7,161.3,162.1,56,27751,4497655.7,0
8/29/2017,162.5,161.6,161.7,73,2277618,368373334.6,0
8/30/2017,165,161.6,161.9,117,1367708,221228726.3,0
8/31/2017,165,162,162,103,1105145,179089411.5,0
9/4/2017,164.6,161.9,162,79,334283,54153587.9,0
9/6/2017,163,161.8,162.1,58,234807,38041948.3,0
9/7/2017,162,159,160.4,52,248371,40165881.7,0
9/8/2017,160.9,160,160.4,120,1355761,217459308.8,0
9/11/2017,160.5,159.9,160.5,68,776087,124557208.8,0
9/12/2017,161,159.9,160.6,86,1842595,295219030.9,0
9/13/2017,162,160,161,48,904555,145634812.1,0
9/14/2017,162,160.5,161.8,35,127183,20527508,0
9/15/2017,163.1,161.5,163,71,1538574,249546908.1,0
9/18/2017,165,163,164.9,87,775460,126801225.7,0
9/19/2017,165.5,164.9,165.2,114,4387738,724449681.4,0
9/20/2017,166,165.2,165.5,71,4746119,785491174,0
9/21/2017,165.7,165,165.5,57,1047887,173423651.5,0
9/22/2017,165.5,162.5,163.1,43,9865,1617509.1,0
9/25/2017,163,162,162.1,29,1368609,223080761.8,0
9/26/2017,163.4,162,162.7,42,133591,21645144,0
9/27/2017,164,163,163,73,336019,54781783.4,0
9/28/2017,163.2,162.5,163,32,897503,146292161.6,0
9/29/2017,163,162.5,162.5,41,169260,27507981.2,0
10/2/2017,164.4,163.5,164,49,83383,13669641.4,0
10/3/2017,166.1,164.2,165,83,492394,81365830.8,0
10/4/2017,165.4,163,164.7,31,29221,4809890.7,0
10/6/2017,165.6,165,165,68,329227,54392437.9,0
10/9/2017,165,163.1,164.5,13,11690,1927189.6,0
10/10/2017,165,163,164.5,100,5482600,898677003.4,0
10/11/2017,164,163,163,95,1245153,203027538.4,0
10/12/2017,164.5,163,163,70,1354102,220720141,0
10/13/2017,164,162.5,163.3,98,755399,123129790.3,0
10/16/2017,164.9,162.5,163,41,275916,44973451,0
10/17/2017,164,162.5,162.9,65,79697,12985446.5,0
10/19/2017,164,161,163,65,1717002,279858996.3,0
10/20/2017,163,161.9,162.5,51,50338,8192124,0
10/23/2017,163,161.9,162,55,362501,58878291.7,0
10/24/2017,162,161,161.3,109,23495,3792915,0
10/25/2017,160.6,159.5,159.9,127,1193123,190810182,0
10/26/2017,162,160,161,66,640416,103552998.4,0
10/27/2017,161.2,160.3,161,36,48358,7785625.5,0
10/30/2017,161,160.3,161,42,2231483,359266285,0
10/31/2017,161.7,158,159.6,162,216057,34528680.4,1
11/1/2017,161,158,160.6,36,2300612,368092236.3,0
11/2/2017,161.5,160,161.1,50,446980,71776734.5,0
11/6/2017,161,159.9,160,122,1270446,203282705.9,0
11/7/2017,161,160,160,16,14622,2339670.5,0
11/8/2017,160,159,159.2,90,699061,111837627.5,0
11/9/2017,159.5,158.9,159.4,74,403044,64178956.7,0
11/10/2017,160,158.8,159,28,6396,1017570.1,0
11/13/2017,160,157.8,158.1,86,40956,6524552.1,0
11/14/2017,158,154,154.8,149,208954,32468393.8,0
11/15/2017,153.6,149,149.9,639,5123657,768589112.7,0
11/16/2017,152.5,150,150.6,265,2254735,338305136.5,0
11/17/2017,154.5,152,154,108,325574,50182339.8,0
11/20/2017,154.8,153,153,57,1347742,206442491.6,0
11/21/2017,153,152,152,140,636040,96679959.1,0
11/22/2017,153.8,153,153.1,47,413578,63292079.2,0
11/23/2017,154.8,153.1,153.5,44,33744,5180090,0
11/24/2017,154,153.5,153.5,103,177028,27205564.2,0
11/27/2017,154,153.5,153.9,51,108673,16727755.1,0
11/28/2017,154.5,153.5,154.2,58,310468,47724743.7,0
11/29/2017,156,154.5,155,118,1161579,180031148.3,0
11/30/2017,155.4,154.3,155,35,131419,20362957.9,0
12/4/2017,155.1,154.9,155,63,1607405,249147767.7,0
12/5/2017,155.3,154.1,155.1,86,609965,94547855.7,0
12/6/2017,155,154.5,154.6,101,938886,145161456,0
12/7/2017,155,154.1,154.5,47,3000617,463596354.4,0
12/8/2017,154.5,152,152.9,29,597,91565.8,0
12/11/2017,153,149,150.2,231,356136,53648391.4,0
12/12/2017,149.7,148.5,149,161,344529,51335030.1,0
12/13/2017,149,148.5,148.9,97,1041338,155128052.4,0
12/14/2017,148.5,145,148,220,4816926,698694473.4,0
12/15/2017,150,148.5,149,75,94491,14103421,0
12/18/2017,150,148.5,149,89,905907,134978205.6,0
12/19/2017,148.9,147.6,147.9,81,47849,7102762.8,0
12/20/2017,148,147.2,147.8,107,743054,109886507.8,0
12/21/2017,150,147,147,92,191833,28383853.5,0
12/22/2017,148,146,146.2,126,112059,16391140.1,0
12/26/2017,148,147.5,147.8,13,1647,243708,0
12/27/2017,148,147.5,147.6,22,3899,575749.8,0
12/28/2017,148.5,147.2,148,59,17930,2654360.5,0
12/29/2017,148.7,147.6,148.5,23,328259,48742757.7,0
1/2/2018,150.2,148.5,150,58,494463,74165501.7,0
1/3/2018,156.5,150,155.5,176,1321405,205764354.2,0
1/4/2018,156,155,156,111,628634,98065406.1,0
1/5/2018,160,156.5,160,339,1973381,315343328.3,0
1/8/2018,167,160,165,212,334049,55013992.7,0
1/9/2018,165,160.3,163.9,198,1742696,287390877.7,0
1/10/2018,164.3,160.5,164,137,201648,33069991,0
1/11/2018,163.5,160.5,162.5,44,1296677,210721314.6,0
1/12/2018,162.5,155.2,158.1,99,2617674,423471839.8,0
1/16/2018,160,157,158.3,68,50094,7923261.2,0
1/17/2018,160,158.1,160,196,991426,158621824.4,0
1/18/2018,161.9,159.9,160,257,2189571,350331453.7,0
1/19/2018,164.7,160,164,178,593976,97085542.6,0
1/22/2018,165,161.4,164.8,138,1575761,259725472.6,0
1/23/2018,166,164,165.3,302,7834747,1291575323,0
1/24/2018,166.4,164,165.6,93,158456,26214900.1,0
1/25/2018,166,163,165.9,46,142664,23631008.8,0
1/26/2018,166,161,165.7,54,158647,26256164.5,0
1/29/2018,165.7,163,163,34,42387,6950615.6,0
1/30/2018,165,160,164.8,77,536118,86428482.3,1
2/1/2018,164.4,163.2,164.3,52,366439,60232619.7,0
2/2/2018,164.9,160,160,79,294476,47123254.9,0
2/6/2018,160,158,158.5,108,814524,129362275.7,0
2/7/2018,158.5,157.1,157.5,86,469971,74372671.5,0
2/8/2018,158.4,157.5,158.3,46,366664,57936836.8,0
2/9/2018,158.5,158.3,158.5,37,66607,10556929.6,0
2/12/2018,160,155,155.3,125,83497,13078556,0
2/14/2018,157.9,155,156.8,52,411973,63857247.9,0
2/15/2018,158,156,157.9,33,225554,35209894,0
2/16/2018,159.8,157,158,39,47114,7439754.4,0
2/19/2018,158,158,158,21,17091,2700378,0
2/20/2018,160,158,159,77,1519841,241656086.9,0
2/21/2018,160.1,159.3,159.8,26,25036,4005179.8,0
2/22/2018,159.8,158.5,159,27,661073,105144047.5,0
2/23/2018,160.3,158.5,160,55,367769,58746208.8,0
2/26/2018,160.1,159,159.6,29,44884,7162327,0
2/27/2018,160.3,159.6,160,33,84348,13496489.2,0
2/28/2018,160.6,160,160.2,50,2746148,439392555.7,0
3/2/2018,163.1,161,163,98,332614,54139592.7,0
3/5/2018,164.9,162.5,164,144,849161,139294763.6,0
3/6/2018,164,162.5,162.8,34,723129,117892542.3,0
3/7/2018,162.9,160.5,160.8,32,167446,27033949,0
3/8/2018,163,161,163,44,647865,105168810,0
3/9/2018,164.6,163,163.8,95,421606,69316528.3,0
3/12/2018,163.2,161.5,162.1,39,328728,53267433,0
3/13/2018,163,161,162,58,3699944,599390200.6,0
3/14/2018,162.5,162,162.5,26,462532,74937629.9,0
3/15/2018,163.9,162,163,75,1441303,233830777.7,0
3/16/2018,164.8,163.8,164.5,64,795236,130813716.1,0
3/19/2018,164.5,162,164.5,4,29,4765.7,0
3/20/2018,162,159.5,160.3,50,6836,1098468.4,0
3/21/2018,160,157.5,158.5,71,289130,45574581,0
3/22/2018,159.9,158.5,159,24,1704502,271016119.5,0
3/23/2018,159.5,158.2,158.5,31,190977,30274208.4,0
3/26/2018,160,158.5,159.7,56,1252698,198742937.9,0
3/27/2018,160.9,158.5,159,38,449930,71961145,0
3/28/2018,159.5,158.9,159,33,903578,144105176.5,0
3/29/2018,160,159,159.6,24,10320,1647785,0
